{
	"credit": "Made with Blockbench",
	"textures": {
		"1": "block/quartz_pillar",
		"2": "block/quartz_pillar_top",
		"particle": "block/quartz_pillar"
	},
	"elements": [
		{
			"name": "Center post",
			"from": [4, -0.001, 4],
			"to": [12, 16, 12],
			"faces": {
				"north": {"uv": [4, 0, 12, 16], "texture": "#1"},
				"east": {"uv": [4, 0, 12, 16], "texture": "#1"},
				"south": {"uv": [4, 0, 12, 16], "texture": "#1"},
				"west": {"uv": [4, 0, 12, 16], "texture": "#1"},
				"up": {"uv": [4, 4, 12, 12], "texture": "#2", "cullface": "up"},
				"down": {"uv": [4, 4, 12, 12], "texture": "#2", "cullface": "down"}
			}
		}
	]
}