{
	"credit": "Made with Blockbench",
	"texture_size": [32, 32],
	"textures": {
		"0": "hats/misc/roy",
		"particle": "hats/misc/roy"
	},
	"elements": [
		{
			"from": [4.75, 8, 6],
			"to": [13.25, 12, 15],
			"faces": {
				"north": {"uv": [5.5, 0, 9.75, 2], "texture": "#0"},
				"east": {"uv": [5, 0, 9.5, 2], "texture": "#0"},
				"south": {"uv": [5.5, 0, 9.75, 2], "texture": "#0"},
				"west": {"uv": [5.5, 0, 10, 2], "texture": "#0"},
				"up": {"uv": [5.5, 0, 10, 4], "texture": "#0"},
				"down": {"uv": [0, 0, 0.5, 0.5], "texture": "#0"}
			}
		},
		{
			"from": [5.75, 12, 6],
			"to": [12.25, 13, 13.75],
			"faces": {
				"north": {"uv": [0, 0, 3.25, 0.5], "texture": "#0"},
				"east": {"uv": [0.5, 8, 4.375, 8.5], "texture": "#0"},
				"south": {"uv": [6, 1.5, 9.25, 2], "texture": "#0"},
				"west": {"uv": [5, 0, 8.875, 0.5], "texture": "#0"},
				"up": {"uv": [0.5, 6, 4, 10], "texture": "#0"},
				"down": {"uv": [0, 0, 3.25, 3.875], "texture": "#0"}
			}
		},
		{
			"from": [4.75, 8, 2],
			"to": [13.25, 16, 6],
			"rotation": {"angle": 0, "axis": "y", "origin": [0, 1, 0]},
			"faces": {
				"north": {"uv": [0, 0, 4, 4], "texture": "#0"},
				"east": {"uv": [6, 0, 4, 4], "texture": "#0"},
				"south": {"uv": [6, 0, 10, 4], "texture": "#0"},
				"west": {"uv": [4, 0, 6, 4], "texture": "#0"},
				"up": {"uv": [0, 4, 4, 6], "texture": "#0"},
				"down": {"uv": [0, 0, 0.5, 0.5], "texture": "#0"}
			}
		},
		{
			"from": [8, 12.5, 2.25],
			"to": [10.75, 15.5, 3.25],
			"rotation": {"angle": 45, "axis": "z", "origin": [8, 17, 2.75]},
			"faces": {
				"north": {"uv": [6.5, 4, 9, 5.5], "texture": "#0"},
				"east": {"uv": [0, 0, 0.5, 1.5], "texture": "#0"},
				"south": {"uv": [2.5, 0, 5, 1.5], "texture": "#0"},
				"west": {"uv": [0, 0, 0.5, 1.5], "texture": "#0"},
				"up": {"uv": [4, 4.5, 6.5, 5], "texture": "#0"},
				"down": {"uv": [0, 0, 2.375, 0.5], "texture": "#0"}
			}
		},
		{
			"from": [5.25, 15.25, 2.25],
			"to": [8, 18.25, 3.25],
			"rotation": {"angle": 45, "axis": "z", "origin": [8, 17, 2.75]},
			"faces": {
				"north": {"uv": [6.5, 4, 9, 5.5], "texture": "#0"},
				"east": {"uv": [0, 0, 0.5, 1.5], "texture": "#0"},
				"south": {"uv": [2.5, 0, 5, 1.5], "texture": "#0"},
				"west": {"uv": [0, 0, 0.5, 1.5], "texture": "#0"},
				"up": {"uv": [4, 4.5, 6.5, 5], "texture": "#0"},
				"down": {"uv": [0, 0, 2.375, 0.5], "texture": "#0"}
			}
		},
		{
			"from": [6.5, 11.5, 1.5],
			"to": [11.5, 15.5, 2],
			"rotation": {"angle": 0, "axis": "y", "origin": [0, 1, 0]},
			"faces": {
				"north": {"uv": [4, 4, 6.5, 6], "texture": "#0"},
				"east": {"uv": [5, 4, 5.25, 6], "texture": "#0"},
				"south": {"uv": [0, 0, 2.5, 2], "texture": "#0"},
				"west": {"uv": [5, 4, 5.25, 6], "texture": "#0"},
				"up": {"uv": [5, 4, 5.5, 4.5], "texture": "#0"},
				"down": {"uv": [5, 4, 5.5, 4.5], "texture": "#0"}
			}
		},
		{
			"from": [4, 6, 5.25],
			"to": [5, 12, 7.25],
			"rotation": {"angle": -22.5, "axis": "z", "origin": [4.5, 9, 6.25]},
			"faces": {
				"north": {"uv": [7.5, 0.5, 8, 3.5], "texture": "#0"},
				"east": {"uv": [0, 0, 0.5, 1], "texture": "#0"},
				"south": {"uv": [3.5, 5.5, 4, 8.5], "texture": "#0"},
				"west": {"uv": [7, 0.5, 8, 3.5], "texture": "#0"},
				"up": {"uv": [0, 0, 0.5, 1], "texture": "#0"},
				"down": {"uv": [0, 0, 0.5, 1], "texture": "#0"}
			}
		},
		{
			"from": [13, 6, 5.25],
			"to": [14, 12, 7.25],
			"rotation": {"angle": 22.5, "axis": "z", "origin": [13.5, 8, 6.25]},
			"faces": {
				"north": {"uv": [2, 6.5, 2.5, 9.5], "texture": "#0"},
				"east": {"uv": [0, 6, 1, 9], "texture": "#0"},
				"south": {"uv": [0, 6, 0.5, 9], "texture": "#0"},
				"west": {"uv": [0, 0, 0.5, 1], "texture": "#0"},
				"up": {"uv": [0, 0, 0.5, 1], "texture": "#0"},
				"down": {"uv": [0, 0, 0.5, 1], "texture": "#0"}
			}
		},
		{
			"from": [4, 6, 12],
			"to": [5, 12, 14],
			"rotation": {"angle": -22.5, "axis": "z", "origin": [4.5, 8, 13]},
			"faces": {
				"north": {"uv": [6, 0, 6.5, 3], "texture": "#0"},
				"east": {"uv": [0, 0, 0.5, 1], "texture": "#0"},
				"south": {"uv": [1, 5, 1.5, 8], "texture": "#0"},
				"west": {"uv": [0.5, 6, 1.5, 9], "texture": "#0"},
				"up": {"uv": [0, 0, 0.5, 1], "texture": "#0"},
				"down": {"uv": [0, 0, 0.5, 1], "texture": "#0"}
			}
		},
		{
			"from": [13, 6, 12],
			"to": [14, 12, 14],
			"rotation": {"angle": 22.5, "axis": "z", "origin": [13.5, 9, 13]},
			"faces": {
				"north": {"uv": [1.5, 6.5, 2, 9.5], "texture": "#0"},
				"east": {"uv": [4, 7, 5, 10], "texture": "#0"},
				"south": {"uv": [3, 5, 3.5, 8], "texture": "#0"},
				"west": {"uv": [0, 0, 0.5, 1], "texture": "#0"},
				"up": {"uv": [0, 0, 0.5, 1], "texture": "#0"},
				"down": {"uv": [0, 0, 0.5, 1], "texture": "#0"}
			}
		},
		{
			"from": [3.75, 4, 4],
			"to": [4.75, 7, 7],
			"rotation": {"angle": 22.5, "axis": "z", "origin": [4.25, 4.5, 5.5]},
			"faces": {
				"north": {"uv": [0, 3.5, 0.5, 5], "texture": "#0"},
				"east": {"uv": [0, 0, 1.5, 1.5], "texture": "#0"},
				"south": {"uv": [0, 0, 0.5, 1.5], "texture": "#0"},
				"west": {"uv": [3, 0, 4.5, 1.5], "texture": "#0"},
				"up": {"uv": [0, 0, 0.5, 1.5], "texture": "#0"},
				"down": {"uv": [0, 0, 0.5, 1.5], "texture": "#0"}
			}
		},
		{
			"from": [13.25, 4, 4],
			"to": [14.25, 7, 7],
			"rotation": {"angle": -22.5, "axis": "z", "origin": [13.75, 4.5, 5.5]},
			"faces": {
				"north": {"uv": [0, 0, 0.5, 1.5], "texture": "#0"},
				"east": {"uv": [0, 0, 1.5, 1.5], "texture": "#0"},
				"south": {"uv": [0, 0, 0.5, 1.5], "texture": "#0"},
				"west": {"uv": [0, 0, 1.5, 1.5], "texture": "#0"},
				"up": {"uv": [0, 0, 0.5, 1.5], "texture": "#0"},
				"down": {"uv": [0, 0, 0.5, 1.5], "texture": "#0"}
			}
		},
		{
			"from": [3.75, 4, 10.75],
			"to": [4.75, 7, 13.75],
			"rotation": {"angle": 22.5, "axis": "z", "origin": [4.25, 4.5, 12.25]},
			"faces": {
				"north": {"uv": [0, 0, 0.5, 1.5], "texture": "#0"},
				"east": {"uv": [0, 0, 1.5, 1.5], "texture": "#0"},
				"south": {"uv": [0, 0, 0.5, 1.5], "texture": "#0"},
				"west": {"uv": [0, 0, 1.5, 1.5], "texture": "#0"},
				"up": {"uv": [0, 0, 0.5, 1.5], "texture": "#0"},
				"down": {"uv": [0, 0, 0.5, 1.5], "texture": "#0"}
			}
		},
		{
			"from": [13.25, 4, 10.75],
			"to": [14.25, 7, 13.75],
			"rotation": {"angle": -22.5, "axis": "z", "origin": [13.75, 4.5, 12.25]},
			"faces": {
				"north": {"uv": [0, 0, 0.5, 1.5], "texture": "#0"},
				"east": {"uv": [3, 0, 4.5, 1.5], "texture": "#0"},
				"south": {"uv": [0, 0, 0.5, 1.5], "texture": "#0"},
				"west": {"uv": [0, 0, 1.5, 1.5], "texture": "#0"},
				"up": {"uv": [0, 0, 0.5, 1.5], "texture": "#0"},
				"down": {"uv": [0, 0, 0.5, 1.5], "texture": "#0"}
			}
		},
		{
			"from": [8, 0.25, 14],
			"to": [10, 10.25, 16],
			"rotation": {"angle": 22.5, "axis": "x", "origin": [9, 8, 15.5]},
			"faces": {
				"north": {"uv": [2, 4.5, 3, 9.5], "texture": "#0"},
				"east": {"uv": [3, 5, 3.5, 10], "texture": "#0"},
				"south": {"uv": [2.5, 5, 3.5, 10], "texture": "#0"},
				"west": {"uv": [2.5, 5, 3, 10], "texture": "#0"},
				"up": {"uv": [0, 0, 1, 0.5], "texture": "#0"},
				"down": {"uv": [0, 0, 1, 0.5], "texture": "#0"}
			}
		}
	],
	"display": {
		"thirdperson_righthand": {
			"rotation": [71, 0, 0],
			"translation": [-7, 0, -1.5]
		},
		"thirdperson_lefthand": {
			"rotation": [74, 0, 0],
			"translation": [-4.75, 1.75, -2]
		},
		"firstperson_righthand": {
			"rotation": [5, 176, -3],
			"translation": [-7, 4.5, 0],
			"scale": [1.26, 0.96, 0.87]
		},
		"firstperson_lefthand": {
			"translation": [-7.5, 6.25, 0]
		},
		"ground": {
			"scale": [4, 4, 4]
		},
		"gui": {
			"rotation": [27, -145, 0],
			"translation": [1, 0, 0],
			"scale": [0.9, 0.9, 0.9]
		},
		"head": {
			"translation": [-1.75, 6.5, -2],
			"scale": [1.73, 1.73, 1.73]
		},
		"fixed": {
			"translation": [-2.5, -9.25, 7.25],
			"scale": [2.44, 2.44, 2.38]
		}
	},
	"groups": [
		{
			"name": "group",
			"origin": [0, 0, 0],
			"color": 0,
			"children": [0, 1, 2, 3, 4, 5, 6, 7, 8, 9, 10, 11, 12, 13, 14]
		}
	]
}