{
	"parent": "minecraft:hats/misc/crown",
	"textures": {
		"0": "block/gray_concrete",
		"1": "block/white_concrete",
		"2": "block/light_gray_concrete",
		"4": "block/white_concrete",
		"particle": "block/gray_concrete"
	}
}