{
	"credit": "Made with Blockbench",
	"texture_size": [16, 32],
	"textures": {
		"0": "hats/class/normal/messenger",
		"particle": "hats/class/normal/messenger"
	},
	"elements": [
		{
			"from": [1, 10, 0.05],
			"to": [15, 16, 1.05],
			"rotation": {"angle": 0, "axis": "y", "origin": [8, 10.8125, 6.20833]},
			"faces": {
				"north": {"uv": [1, 2.5, 15, 5.5], "texture": "#0"},
				"east": {"uv": [13, 3.5, 14, 6.5], "texture": "#0"},
				"south": {"uv": [16, 7.5, 15, 8], "texture": "#0"},
				"west": {"uv": [9, 3.5, 10, 6.5], "rotation": 180, "texture": "#0"},
				"up": {"uv": [4, 3, 18, 3.5], "rotation": 180, "texture": "#0"},
				"down": {"uv": [16, 7.5, 15, 8], "texture": "#0"}
			}
		},
		{
			"from": [1, 10, -1],
			"to": [7, 11, 0],
			"rotation": {"angle": 0, "axis": "y", "origin": [8, 10.8125, 6.20833]},
			"faces": {
				"north": {"uv": [5, 2, 11, 2.5], "texture": "#0"},
				"east": {"uv": [12, 6, 13, 6.5], "texture": "#0"},
				"south": {"uv": [8, 13, 14, 13.5], "texture": "#0"},
				"west": {"uv": [12, 6, 13, 6.5], "texture": "#0"},
				"up": {"uv": [5, 6, 11, 6.5], "texture": "#0"},
				"down": {"uv": [10, 6.5, 16, 7], "texture": "#0"}
			}
		},
		{
			"from": [9, 10, -1],
			"to": [15, 11, 0],
			"rotation": {"angle": 0, "axis": "y", "origin": [8, 10.8125, 6.20833]},
			"faces": {
				"north": {"uv": [5, 4, 11, 4.5], "texture": "#0"},
				"east": {"uv": [12, 6, 13, 6.5], "texture": "#0"},
				"south": {"uv": [8, 13, 14, 13.5], "texture": "#0"},
				"west": {"uv": [12, 6, 13, 6.5], "texture": "#0"},
				"up": {"uv": [5, 6, 11, 6.5], "texture": "#0"},
				"down": {"uv": [9, 6.5, 15, 7], "texture": "#0"}
			}
		},
		{
			"from": [0, 10, 0],
			"to": [1, 11, 1],
			"rotation": {"angle": 0, "axis": "y", "origin": [8, 10.8125, 6.20833]},
			"faces": {
				"north": {"uv": [9, 5, 10, 5.5], "texture": "#0"},
				"east": {"uv": [10, 6, 11, 6.5], "texture": "#0"},
				"south": {"uv": [10, 6, 11, 6.5], "texture": "#0"},
				"west": {"uv": [10, 6, 11, 6.5], "texture": "#0"},
				"up": {"uv": [10, 6, 11, 6.5], "texture": "#0"},
				"down": {"uv": [10, 6, 11, 6.5], "texture": "#0"}
			}
		},
		{
			"from": [15, 10, 0],
			"to": [16, 11, 1],
			"rotation": {"angle": 0, "axis": "y", "origin": [8, 10.8125, 6.20833]},
			"faces": {
				"north": {"uv": [9, 4.5, 10, 5], "texture": "#0"},
				"east": {"uv": [10, 6, 11, 6.5], "texture": "#0"},
				"south": {"uv": [10, 6, 11, 6.5], "texture": "#0"},
				"west": {"uv": [10, 6, 11, 6.5], "texture": "#0"},
				"up": {"uv": [10, 6, 11, 6.5], "texture": "#0"},
				"down": {"uv": [10, 6, 11, 6.5], "texture": "#0"}
			}
		},
		{
			"from": [-0.9, 10, 1],
			"to": [0, 11, 2],
			"rotation": {"angle": 0, "axis": "y", "origin": [8, 10.8125, 6.20833]},
			"faces": {
				"north": {"uv": [9, 3.5, 10, 4], "texture": "#0"},
				"east": {"uv": [10, 6, 11, 6.5], "texture": "#0"},
				"south": {"uv": [10, 6, 11, 6.5], "texture": "#0"},
				"west": {"uv": [12, 2.5, 13, 3], "texture": "#0"},
				"up": {"uv": [10, 6, 11, 6.5], "texture": "#0"},
				"down": {"uv": [10, 6, 11, 6.5], "texture": "#0"}
			}
		},
		{
			"from": [16, 10, 1],
			"to": [16.9, 11, 2],
			"rotation": {"angle": 0, "axis": "y", "origin": [8, 10.8125, 6.20833]},
			"faces": {
				"north": {"uv": [8, 3.5, 9, 4], "texture": "#0"},
				"east": {"uv": [7, 2, 8, 2.5], "texture": "#0"},
				"south": {"uv": [10, 6, 11, 6.5], "texture": "#0"},
				"west": {"uv": [10, 6, 11, 6.5], "texture": "#0"},
				"up": {"uv": [10, 6, 11, 6.5], "texture": "#0"},
				"down": {"uv": [10, 6, 11, 6.5], "texture": "#0"}
			}
		},
		{
			"from": [0, 0, 15],
			"to": [16, 16, 16],
			"rotation": {"angle": 0, "axis": "y", "origin": [8, 10.8125, 6.20833]},
			"faces": {
				"north": {"uv": [15, 7.5, 16, 8], "texture": "#0"},
				"east": {"uv": [2, 0, 3, 8], "texture": "#0"},
				"south": {"uv": [0, 0, 16, 8], "rotation": 90, "texture": "#0"},
				"west": {"uv": [11, 0, 12, 8], "texture": "#0"},
				"up": {"uv": [0, 3.5, 16, 4], "texture": "#0"},
				"down": {"uv": [16, 7.5, 15, 8], "texture": "#0"}
			}
		},
		{
			"from": [0, 7, 1],
			"to": [1, 16, 6],
			"rotation": {"angle": 0, "axis": "y", "origin": [8, 10.8125, 6.20833]},
			"faces": {
				"north": {"uv": [12, 3.5, 13, 8], "texture": "#0"},
				"east": {"uv": [16, 7.5, 15, 8], "texture": "#0"},
				"south": {"uv": [15, 3, 16, 7.5], "texture": "#0"},
				"west": {"uv": [7, 2.5, 12, 7], "texture": "#0"},
				"up": {"uv": [3, 2, 4, 4.5], "texture": "#0"},
				"down": {"uv": [14, 5, 15, 7.5], "texture": "#0"}
			}
		},
		{
			"from": [15, 7, 1],
			"to": [16, 16, 6],
			"rotation": {"angle": 0, "axis": "y", "origin": [8, 10.8125, 6.20833]},
			"faces": {
				"north": {"uv": [1, 1.5, 2, 6], "texture": "#0"},
				"east": {"uv": [10, 1.5, 15, 6], "texture": "#0"},
				"south": {"uv": [0, 4.5, 1, 0], "texture": "#0"},
				"west": {"uv": [16, 7.5, 15, 8], "texture": "#0"},
				"up": {"uv": [0, 1, 1, 3.5], "texture": "#0"},
				"down": {"uv": [14, 7, 15, 4.5], "texture": "#0"}
			}
		},
		{
			"from": [0, 7, 10],
			"to": [1, 16, 15],
			"rotation": {"angle": 0, "axis": "y", "origin": [8, 10.8125, 6.20833]},
			"faces": {
				"north": {"uv": [0, 4.5, 1, 0], "texture": "#0"},
				"east": {"uv": [16, 7.5, 15, 8], "texture": "#0"},
				"south": {"uv": [0, 0, 1, 4.5], "texture": "#0"},
				"west": {"uv": [8, 4, 3, 8.5], "texture": "#0"},
				"up": {"uv": [11, 4.5, 12, 7], "texture": "#0"},
				"down": {"uv": [0, 15, 1, 17.5], "texture": "#0"}
			}
		},
		{
			"from": [15, 7, 10],
			"to": [16, 16, 15],
			"rotation": {"angle": 0, "axis": "y", "origin": [8, 10.8125, 6.20833]},
			"faces": {
				"north": {"uv": [2, 4.5, 3, 0], "texture": "#0"},
				"east": {"uv": [5, 6, 10, 10.5], "texture": "#0"},
				"south": {"uv": [0, 0, 1, 4.5], "texture": "#0"},
				"west": {"uv": [16, 7.5, 15, 8], "texture": "#0"},
				"up": {"uv": [3, 2, 4, 4.5], "texture": "#0"},
				"down": {"uv": [16, 7.5, 15, 8], "texture": "#0"}
			}
		},
		{
			"from": [0, 11, 6],
			"to": [1, 16, 10],
			"rotation": {"angle": 0, "axis": "y", "origin": [8, 10.8125, 6.20833]},
			"faces": {
				"north": {"uv": [15, 7.5, 16, 8], "texture": "#0"},
				"east": {"uv": [16, 7.5, 15, 8], "texture": "#0"},
				"south": {"uv": [15, 7.5, 16, 10], "texture": "#0"},
				"west": {"uv": [9, 3, 13, 5.5], "texture": "#0"},
				"up": {"uv": [11, 3.5, 12, 5.5], "texture": "#0"},
				"down": {"uv": [15, 7.5, 16, 9.5], "texture": "#0"}
			}
		},
		{
			"from": [15, 11, 6],
			"to": [16, 16, 10],
			"rotation": {"angle": 0, "axis": "y", "origin": [8, 10.8125, 6.20833]},
			"faces": {
				"north": {"uv": [2, 0, 3, 15], "texture": "#0"},
				"east": {"uv": [4, 2.5, 8, 5], "texture": "#0"},
				"south": {"uv": [0, 0, 1, 2.5], "texture": "#0"},
				"west": {"uv": [16, 7.5, 15, 8], "texture": "#0"},
				"up": {"uv": [2, 1.5, 3, 3.5], "texture": "#0"},
				"down": {"uv": [0, 15, 1, 17], "texture": "#0"}
			}
		},
		{
			"from": [1, 16, 1],
			"to": [15, 18, 15],
			"rotation": {"angle": 0, "axis": "y", "origin": [8, 10.8125, 6.20833]},
			"faces": {
				"north": {"uv": [0, 6, 14, 7], "texture": "#0"},
				"east": {"uv": [0, 1.5, 14, 2.5], "texture": "#0"},
				"south": {"uv": [0, 5.5, 14, 6.5], "texture": "#0"},
				"west": {"uv": [0, 1.5, 14, 2.5], "texture": "#0"},
				"up": {"uv": [0, 0.5, 14, 7.5], "texture": "#0"},
				"down": {"uv": [16, 7.5, 15, 8], "texture": "#0"}
			}
		},
		{
			"from": [7, 17, 1],
			"to": [9, 19, 15],
			"rotation": {"angle": 0, "axis": "y", "origin": [8, 10.8125, 6.20833]},
			"faces": {
				"north": {"uv": [9, 6.5, 11, 7.5], "texture": "#0"},
				"east": {"uv": [2, 7, 16, 8], "texture": "#0"},
				"south": {"uv": [4, 6, 6, 7], "texture": "#0"},
				"west": {"uv": [16, 6.5, 2, 7.5], "texture": "#0"},
				"up": {"uv": [7, 0, 9, 7], "texture": "#0"},
				"down": {"uv": [7, 9, 9, 16], "texture": "#0"}
			}
		},
		{
			"from": [7, 16, 2],
			"to": [9, 18, 16],
			"rotation": {"angle": 0, "axis": "y", "origin": [8, 10.8125, 6.20833]},
			"faces": {
				"north": {"uv": [5, 6, 7, 8], "texture": "#0"},
				"east": {"uv": [1, 6, 15, 7], "texture": "#0"},
				"south": {"uv": [4, 6, 6, 7], "texture": "#0"},
				"west": {"uv": [15, 2, 1, 3], "texture": "#0"},
				"up": {"uv": [5, 0.5, 7, 7.5], "texture": "#0"},
				"down": {"uv": [7, 9, 9, 16], "texture": "#0"}
			}
		},
		{
			"from": [7, 2, 16],
			"to": [9, 16, 17],
			"rotation": {"angle": 0, "axis": "y", "origin": [8, 10.8125, 6.20833]},
			"faces": {
				"north": {"uv": [7, 9, 9, 11], "rotation": 180, "texture": "#0"},
				"east": {"uv": [4, 6, 18, 6.5], "rotation": 270, "texture": "#0"},
				"south": {"uv": [12, 1, 14, 8], "texture": "#0"},
				"west": {"uv": [18, 6, 4, 6.5], "rotation": 90, "texture": "#0"},
				"up": {"uv": [5, 6, 7, 6.5], "rotation": 180, "texture": "#0"},
				"down": {"uv": [14, 7.5, 16, 8], "texture": "#0"}
			}
		},
		{
			"from": [7, 3, -1],
			"to": [9, 15, 1],
			"rotation": {"angle": 0, "axis": "y", "origin": [8, 10.8125, 6.20833]},
			"faces": {
				"north": {"uv": [13, 1.5, 15, 7.5], "texture": "#0"},
				"east": {"uv": [2, 5.5, 14, 6.5], "rotation": 90, "texture": "#0"},
				"south": {"uv": [14, 8, 16, 2], "rotation": 180, "texture": "#0"},
				"west": {"uv": [1, 0.5, 13, 1.5], "rotation": 270, "texture": "#0"},
				"up": {"uv": [5, 6, 7, 7], "texture": "#0"},
				"down": {"uv": [11, 6.5, 13, 7.5], "rotation": 180, "texture": "#0"}
			}
		},
		{
			"from": [1, 1, -1],
			"to": [3, 10, 1],
			"rotation": {"angle": 0, "axis": "y", "origin": [8, 10.8125, 6.20833]},
			"faces": {
				"north": {"uv": [10, 3.5, 12, 8], "texture": "#0"},
				"east": {"uv": [6, 6, 15, 7], "rotation": 90, "texture": "#0"},
				"south": {"uv": [14, 8, 16, 3.5], "rotation": 180, "texture": "#0"},
				"west": {"uv": [5, 5, 14, 6], "rotation": 270, "texture": "#0"},
				"up": {"uv": [5, 6, 7, 7], "texture": "#0"},
				"down": {"uv": [7, 7, 9, 8], "rotation": 180, "texture": "#0"}
			}
		},
		{
			"from": [5, 11, -1],
			"to": [7, 14, 1],
			"rotation": {"angle": 0, "axis": "y", "origin": [8, 10.8125, 6.20833]},
			"faces": {
				"north": {"uv": [11, 3.5, 13, 5], "texture": "#0"},
				"east": {"uv": [9, 6, 6, 7], "rotation": 90, "texture": "#0"},
				"south": {"uv": [5, 6, 7, 7.5], "rotation": 180, "texture": "#0"},
				"west": {"uv": [10, 6, 13, 7], "rotation": 270, "texture": "#0"},
				"up": {"uv": [5, 4.5, 7, 5.5], "texture": "#0"},
				"down": {"uv": [4, 6, 6, 7], "rotation": 180, "texture": "#0"}
			}
		},
		{
			"from": [9, 11, -1],
			"to": [11, 14, 1],
			"rotation": {"angle": 0, "axis": "y", "origin": [8, 10.8125, 6.20833]},
			"faces": {
				"north": {"uv": [7, 4, 9, 5.5], "texture": "#0"},
				"east": {"uv": [10, 6.5, 7, 7.5], "rotation": 90, "texture": "#0"},
				"south": {"uv": [5, 6, 7, 7.5], "rotation": 180, "texture": "#0"},
				"west": {"uv": [5, 11, 8, 12], "rotation": 270, "texture": "#0"},
				"up": {"uv": [4, 5, 6, 6], "texture": "#0"},
				"down": {"uv": [4, 6, 6, 7], "rotation": 180, "texture": "#0"}
			}
		},
		{
			"from": [13, 1, -1],
			"to": [15, 10, 1],
			"rotation": {"angle": 0, "axis": "y", "origin": [8, 10.8125, 6.20833]},
			"faces": {
				"north": {"uv": [12, 1.5, 14, 6], "texture": "#0"},
				"east": {"uv": [14, 5.5, 5, 6.5], "rotation": 90, "texture": "#0"},
				"south": {"uv": [14, 8, 16, 3.5], "rotation": 180, "texture": "#0"},
				"west": {"uv": [13, 6.5, 4, 7.5], "rotation": 270, "texture": "#0"},
				"up": {"uv": [5, 6, 7, 7], "texture": "#0"},
				"down": {"uv": [10, 7, 12, 8], "rotation": 180, "texture": "#0"}
			}
		},
		{
			"from": [3, 2, -1],
			"to": [4, 6, 0],
			"rotation": {"angle": 0, "axis": "y", "origin": [8, 10.8125, 6.20833]},
			"faces": {
				"north": {"uv": [12, 4.5, 13, 6.5], "texture": "#0"},
				"east": {"uv": [10, 6, 6, 6.5], "rotation": 90, "texture": "#0"},
				"south": {"uv": [15, 6, 16, 8], "rotation": 180, "texture": "#0"},
				"west": {"uv": [4, 11, 8, 11.5], "rotation": 270, "texture": "#0"},
				"up": {"uv": [5, 6, 6, 6.5], "texture": "#0"},
				"down": {"uv": [4, 6, 5, 6.5], "rotation": 180, "texture": "#0"}
			}
		},
		{
			"from": [12, 2, -1],
			"to": [13, 6, 0],
			"rotation": {"angle": 0, "axis": "y", "origin": [8, 10.8125, 6.20833]},
			"faces": {
				"north": {"uv": [12, 5, 13, 7], "texture": "#0"},
				"east": {"uv": [10, 6, 6, 6.5], "rotation": 90, "texture": "#0"},
				"south": {"uv": [15, 6, 16, 8], "rotation": 180, "texture": "#0"},
				"west": {"uv": [6, 6, 10, 6.5], "rotation": 270, "texture": "#0"},
				"up": {"uv": [5, 6, 6, 6.5], "texture": "#0"},
				"down": {"uv": [4, 6, 5, 6.5], "rotation": 180, "texture": "#0"}
			}
		},
		{
			"from": [4, 3, -1],
			"to": [5, 6, 0],
			"rotation": {"angle": 0, "axis": "y", "origin": [8, 10.8125, 6.20833]},
			"faces": {
				"north": {"uv": [12, 4, 13, 5.5], "texture": "#0"},
				"east": {"uv": [9, 6, 6, 6.5], "rotation": 90, "texture": "#0"},
				"south": {"uv": [14, 6.5, 15, 8], "rotation": 180, "texture": "#0"},
				"west": {"uv": [4, 11, 7, 11.5], "rotation": 270, "texture": "#0"},
				"up": {"uv": [5, 6, 6, 6.5], "texture": "#0"},
				"down": {"uv": [4, 6, 5, 6.5], "rotation": 180, "texture": "#0"}
			}
		},
		{
			"from": [11, 3, -1],
			"to": [12, 6, 0],
			"rotation": {"angle": 0, "axis": "y", "origin": [8, 10.8125, 6.20833]},
			"faces": {
				"north": {"uv": [13, 4, 14, 5.5], "texture": "#0"},
				"east": {"uv": [9, 6, 6, 6.5], "rotation": 90, "texture": "#0"},
				"south": {"uv": [15, 6, 16, 7.5], "rotation": 180, "texture": "#0"},
				"west": {"uv": [5, 5.5, 8, 6], "rotation": 270, "texture": "#0"},
				"up": {"uv": [5, 6, 6, 6.5], "texture": "#0"},
				"down": {"uv": [4, 6, 5, 6.5], "rotation": 180, "texture": "#0"}
			}
		},
		{
			"from": [7, 16, 0],
			"to": [9, 18, 2],
			"rotation": {"angle": 0, "axis": "y", "origin": [8, 10.8125, 6.20833]},
			"faces": {
				"north": {"uv": [0, 6, 2, 7], "texture": "#0"},
				"east": {"uv": [9, 5, 7, 6], "rotation": 90, "texture": "#0"},
				"south": {"uv": [5, 6, 7, 7], "rotation": 180, "texture": "#0"},
				"west": {"uv": [3, 6, 5, 7], "rotation": 270, "texture": "#0"},
				"up": {"uv": [6, 3, 8, 4], "texture": "#0"},
				"down": {"uv": [11, 6.5, 13, 7.5], "rotation": 180, "texture": "#0"}
			}
		},
		{
			"from": [-2.05, 8.95, 4],
			"to": [0.95, 13.95, 9],
			"rotation": {"angle": 0, "axis": "y", "origin": [8, 10.8125, 6.20833]},
			"faces": {
				"north": {"uv": [7, 5, 10, 7.5], "texture": "#0"},
				"east": {"uv": [5, 6, 10, 8.5], "texture": "#0"},
				"south": {"uv": [8, 6, 5, 8.5], "texture": "#0"},
				"west": {"uv": [10, 3, 5, 5.5], "texture": "#0"},
				"up": {"uv": [6, 4, 9, 6.5], "rotation": 180, "texture": "#0"},
				"down": {"uv": [10, 5, 13, 7.5], "texture": "#0"}
			}
		},
		{
			"from": [15.1, 8.95, 4],
			"to": [18.1, 13.95, 9],
			"rotation": {"angle": 0, "axis": "y", "origin": [8, 10.8125, 6.20833]},
			"faces": {
				"north": {"uv": [10, 4.5, 13, 7], "texture": "#0"},
				"east": {"uv": [4, 2.5, 9, 5], "texture": "#0"},
				"south": {"uv": [8, 6, 5, 8.5], "texture": "#0"},
				"west": {"uv": [10, 5.5, 5, 8], "texture": "#0"},
				"up": {"uv": [10, 0, 13, 2.5], "rotation": 180, "texture": "#0"},
				"down": {"uv": [4, 5.5, 7, 8], "texture": "#0"}
			}
		},
		{
			"from": [-0.94, 0, 10],
			"to": [0.06, 9, 15],
			"rotation": {"angle": 0, "axis": "y", "origin": [8, 10.8125, 6.20833]},
			"faces": {
				"north": {"uv": [14, 3, 15, 7.5], "texture": "#0"},
				"east": {"uv": [16, 7.5, 15, 8], "texture": "#0"},
				"south": {"uv": [11, 3.5, 12, 8], "texture": "#0"},
				"west": {"uv": [8, 2.5, 13, 7], "texture": "#0"},
				"up": {"uv": [10, 9, 11, 11.5], "texture": "#0"},
				"down": {"uv": [16, 7.5, 15, 8], "texture": "#0"}
			}
		},
		{
			"from": [15.95, 0, 10],
			"to": [16.95, 9, 15],
			"rotation": {"angle": 0, "axis": "y", "origin": [8, 10.8125, 6.20833]},
			"faces": {
				"north": {"uv": [14, 3, 15, 7.5], "texture": "#0"},
				"east": {"uv": [6, 2.5, 11, 7], "texture": "#0"},
				"south": {"uv": [3, 3.5, 4, 8], "texture": "#0"},
				"west": {"uv": [16, 7.5, 15, 8], "texture": "#0"},
				"up": {"uv": [10, 9, 11, 11.5], "texture": "#0"},
				"down": {"uv": [16, 7.5, 15, 8], "texture": "#0"}
			}
		},
		{
			"from": [-1, 9, 6],
			"to": [0, 13, 14],
			"rotation": {"angle": 0, "axis": "y", "origin": [8, 10.8125, 6.20833]},
			"faces": {
				"north": {"uv": [6, 6, 11, 12], "texture": "#0"},
				"east": {"uv": [6, 8, 14, 10], "texture": "#0"},
				"south": {"uv": [11, 9, 12, 11], "texture": "#0"},
				"west": {"uv": [5, 5, 13, 7], "texture": "#0"},
				"up": {"uv": [10, 9, 11, 13], "texture": "#0"},
				"down": {"uv": [10, 13, 11, 9], "texture": "#0"}
			}
		},
		{
			"from": [15.95, 9, 6],
			"to": [16.95, 13, 14],
			"rotation": {"angle": 0, "axis": "y", "origin": [8, 10.8125, 6.20833]},
			"faces": {
				"north": {"uv": [6, 6, 11, 12], "texture": "#0"},
				"east": {"uv": [5, 6, 13, 8], "texture": "#0"},
				"south": {"uv": [10, 7, 11, 9], "texture": "#0"},
				"west": {"uv": [6, 8, 14, 10], "texture": "#0"},
				"up": {"uv": [10, 9, 11, 13], "texture": "#0"},
				"down": {"uv": [10, 13, 11, 9], "texture": "#0"}
			}
		},
		{
			"from": [-1, 0, 8],
			"to": [0, 2, 10],
			"rotation": {"angle": 0, "axis": "y", "origin": [8, 10.8125, 6.20833]},
			"faces": {
				"north": {"uv": [11, 6.5, 12, 7.5], "texture": "#0"},
				"east": {"uv": [16, 7.5, 15, 8], "texture": "#0"},
				"south": {"uv": [0, 10, 1, 11], "texture": "#0"},
				"west": {"uv": [6, 6.5, 8, 7.5], "texture": "#0"},
				"up": {"uv": [6, 4.5, 7, 5.5], "texture": "#0"},
				"down": {"uv": [16, 7.5, 15, 8], "texture": "#0"}
			}
		},
		{
			"from": [16, 0, 8],
			"to": [17, 2, 10],
			"rotation": {"angle": 0, "axis": "y", "origin": [8, 10.8125, 6.20833]},
			"faces": {
				"north": {"uv": [11, 5, 12, 6], "texture": "#0"},
				"east": {"uv": [10, 6.5, 12, 7.5], "texture": "#0"},
				"south": {"uv": [0, 10, 1, 11], "texture": "#0"},
				"west": {"uv": [16, 7.5, 15, 8], "texture": "#0"},
				"up": {"uv": [12, 4, 13, 5], "texture": "#0"},
				"down": {"uv": [16, 7.5, 15, 8], "texture": "#0"}
			}
		},
		{
			"from": [-1.98, 20, 9.5],
			"to": [-1.01, 29, 10.5],
			"rotation": {"angle": 22.5, "axis": "x", "origin": [8, 11.8125, 6.20833]},
			"faces": {
				"north": {"uv": [14, 8.5, 15, 15.5], "texture": "#0"},
				"east": {"uv": [15, 8.5, 14, 13], "texture": "#0"},
				"south": {"uv": [14, 9.5, 14.97, 14], "rotation": 180, "texture": "#0"},
				"west": {"uv": [14, 9, 15, 13.5], "rotation": 180, "texture": "#0"},
				"up": {"uv": [13, 10, 13.97, 10.5], "texture": "#0"},
				"down": {"uv": [15, 9.5, 15.97, 10], "rotation": 180, "texture": "#0"}
			}
		},
		{
			"from": [-0.98, 19, 9.5],
			"to": [-0.01, 28, 10.5],
			"rotation": {"angle": 22.5, "axis": "x", "origin": [10, 10.8125, 6.20833]},
			"faces": {
				"north": {"uv": [14, 8.5, 15, 15.5], "texture": "#0"},
				"east": {"uv": [15, 8.5, 14, 13], "texture": "#0"},
				"south": {"uv": [14, 9.5, 14.97, 14], "rotation": 180, "texture": "#0"},
				"west": {"uv": [14, 9, 15, 13.5], "rotation": 180, "texture": "#0"},
				"up": {"uv": [13, 10, 13.97, 10.5], "texture": "#0"},
				"down": {"uv": [15, 9.5, 15.97, 10], "rotation": 180, "texture": "#0"}
			}
		},
		{
			"from": [-1.98, 12, 6],
			"to": [-0.98, 21, 7],
			"rotation": {"angle": 45, "axis": "x", "origin": [8, 11.8125, 6.20833]},
			"faces": {
				"north": {"uv": [14, 8.5, 15, 15.5], "texture": "#0"},
				"east": {"uv": [15, 8.5, 14, 13], "texture": "#0"},
				"south": {"uv": [14, 9.5, 15, 14], "rotation": 180, "texture": "#0"},
				"west": {"uv": [14, 9, 15, 13.5], "rotation": 180, "texture": "#0"},
				"up": {"uv": [13, 10, 14, 10.5], "texture": "#0"},
				"down": {"uv": [15, 9.5, 16, 10], "rotation": 180, "texture": "#0"}
			}
		},
		{
			"from": [-0.98, 11, 6],
			"to": [0.02, 20, 7],
			"rotation": {"angle": 45, "axis": "x", "origin": [10, 10.8125, 6.20833]},
			"faces": {
				"north": {"uv": [14, 8.5, 15, 15.5], "texture": "#0"},
				"east": {"uv": [15, 8.5, 14, 13], "texture": "#0"},
				"south": {"uv": [14, 9.5, 15, 14], "rotation": 180, "texture": "#0"},
				"west": {"uv": [14, 9, 15, 13.5], "rotation": 180, "texture": "#0"},
				"up": {"uv": [13, 10, 14, 10.5], "texture": "#0"},
				"down": {"uv": [15, 9.5, 16, 10], "rotation": 180, "texture": "#0"}
			}
		},
		{
			"from": [-1.98, 10.02083, 6.39583],
			"to": [-1, 11.02083, 15.39583],
			"rotation": {"angle": -22.5, "axis": "x", "origin": [9, 10.8125, 6.20833]},
			"faces": {
				"north": {"uv": [14, 8.5, 15, 9.5], "texture": "#0"},
				"east": {"uv": [15, 8.5, 14, 13], "texture": "#0"},
				"south": {"uv": [14, 9.5, 14.98, 10], "texture": "#0"},
				"west": {"uv": [14, 9, 15, 13.5], "rotation": 90, "texture": "#0"},
				"up": {"uv": [13, 10, 13.98, 14.5], "rotation": 180, "texture": "#0"},
				"down": {"uv": [15, 9.5, 15.98, 14], "rotation": 180, "texture": "#0"}
			}
		},
		{
			"from": [-0.98, 9.02083, 6.39583],
			"to": [0, 10.02083, 15.39583],
			"rotation": {"angle": -22.5, "axis": "x", "origin": [9, 9.8125, 6.20833]},
			"faces": {
				"north": {"uv": [14, 8.5, 15, 9.5], "texture": "#0"},
				"east": {"uv": [15, 8.5, 14, 13], "texture": "#0"},
				"south": {"uv": [14, 9.5, 14.98, 10], "texture": "#0"},
				"west": {"uv": [14, 9, 15, 13.5], "rotation": 180, "texture": "#0"},
				"up": {"uv": [13, 10, 13.98, 14.5], "rotation": 180, "texture": "#0"},
				"down": {"uv": [15, 9.5, 15.98, 14], "rotation": 180, "texture": "#0"}
			}
		},
		{
			"from": [-0.98, 18, 9.5],
			"to": [-0.01, 27, 10.5],
			"rotation": {"angle": 45, "axis": "x", "origin": [9, 9.8125, 6.20833]},
			"faces": {
				"north": {"uv": [14, 8.5, 15, 15.5], "texture": "#0"},
				"east": {"uv": [15, 8.5, 14, 13], "texture": "#0"},
				"south": {"uv": [14, 9.5, 14.97, 14], "rotation": 180, "texture": "#0"},
				"west": {"uv": [14, 9, 15, 13.5], "rotation": 180, "texture": "#0"},
				"up": {"uv": [13, 10, 13.97, 10.5], "texture": "#0"},
				"down": {"uv": [15, 9.5, 15.97, 10], "rotation": 180, "texture": "#0"}
			}
		},
		{
			"from": [-1.98, 19, 9.5],
			"to": [-1.01, 28, 10.5],
			"rotation": {"angle": 45, "axis": "x", "origin": [9, 10.8125, 6.20833]},
			"faces": {
				"north": {"uv": [14, 8.5, 15, 15.5], "texture": "#0"},
				"east": {"uv": [15, 8.5, 14, 13], "texture": "#0"},
				"south": {"uv": [14, 9.5, 14.97, 14], "rotation": 180, "texture": "#0"},
				"west": {"uv": [14, 9, 15, 13.5], "rotation": 180, "texture": "#0"},
				"up": {"uv": [13, 10, 13.97, 10.5], "texture": "#0"},
				"down": {"uv": [15, 9.5, 15.97, 10], "rotation": 180, "texture": "#0"}
			}
		},
		{
			"from": [-0.98, 7.52083, 12.39583],
			"to": [-0.01, 8.52083, 21.39583],
			"rotation": {"angle": -22.5, "axis": "x", "origin": [9, 11.8125, 6.20833]},
			"faces": {
				"north": {"uv": [14, 8.5, 15, 9.5], "texture": "#0"},
				"east": {"uv": [15, 8.5, 14, 13], "rotation": 90, "texture": "#0"},
				"south": {"uv": [14, 9.5, 14.97, 10], "texture": "#0"},
				"west": {"uv": [14, 9, 15, 13.5], "rotation": 270, "texture": "#0"},
				"up": {"uv": [13, 10, 13.97, 14.5], "rotation": 180, "texture": "#0"},
				"down": {"uv": [15, 9.5, 15.97, 14], "rotation": 180, "texture": "#0"}
			}
		},
		{
			"from": [-1.98, 6.52083, 14.39583],
			"to": [-1.01, 7.52083, 23.39583],
			"rotation": {"angle": -22.5, "axis": "x", "origin": [9, 10.8125, 6.20833]},
			"faces": {
				"north": {"uv": [14, 8.5, 15, 9.5], "texture": "#0"},
				"east": {"uv": [15, 8.5, 14, 13], "rotation": 90, "texture": "#0"},
				"south": {"uv": [14, 9.5, 14.97, 10], "texture": "#0"},
				"west": {"uv": [14, 9, 15, 13.5], "rotation": 270, "texture": "#0"},
				"up": {"uv": [13, 10, 13.97, 14.5], "rotation": 180, "texture": "#0"},
				"down": {"uv": [15, 9.5, 15.97, 14], "rotation": 180, "texture": "#0"}
			}
		},
		{
			"from": [-0.98, 11.02083, 6.39583],
			"to": [0.02, 12.02083, 15.39583],
			"rotation": {"angle": 0, "axis": "y", "origin": [9, 11.8125, 6.20833]},
			"faces": {
				"north": {"uv": [14, 8.5, 15, 9.5], "texture": "#0"},
				"east": {"uv": [15, 8.5, 14, 13], "texture": "#0"},
				"south": {"uv": [14, 9.5, 15, 10], "texture": "#0"},
				"west": {"uv": [14, 9, 15, 13.5], "rotation": 90, "texture": "#0"},
				"up": {"uv": [13, 10, 14, 14.5], "rotation": 180, "texture": "#0"},
				"down": {"uv": [15, 9.5, 16, 14], "rotation": 180, "texture": "#0"}
			}
		},
		{
			"from": [-1.98, 10.02083, 6.39583],
			"to": [-1, 11.02083, 15.39583],
			"rotation": {"angle": 22.5, "axis": "x", "origin": [9, 10.8125, 6.20833]},
			"faces": {
				"north": {"uv": [14, 8.5, 15, 9.5], "texture": "#0"},
				"east": {"uv": [15, 8.5, 14, 13], "texture": "#0"},
				"south": {"uv": [14, 9.5, 14.98, 10], "texture": "#0"},
				"west": {"uv": [14, 9, 15, 13.5], "rotation": 270, "texture": "#0"},
				"up": {"uv": [13, 10, 13.98, 14.5], "rotation": 180, "texture": "#0"},
				"down": {"uv": [15, 9.5, 15.98, 14], "rotation": 180, "texture": "#0"}
			}
		},
		{
			"from": [-0.98, 9.02083, 6.39583],
			"to": [0, 10.02083, 15.39583],
			"rotation": {"angle": 22.5, "axis": "x", "origin": [9, 9.8125, 6.20833]},
			"faces": {
				"north": {"uv": [14, 8.5, 15, 9.5], "texture": "#0"},
				"east": {"uv": [15, 8.5, 14, 13], "texture": "#0"},
				"south": {"uv": [14, 9.5, 14.98, 10], "texture": "#0"},
				"west": {"uv": [14, 9, 15, 13.5], "rotation": 90, "texture": "#0"},
				"up": {"uv": [13, 10, 13.98, 14.5], "rotation": 180, "texture": "#0"},
				"down": {"uv": [15, 9.5, 15.98, 14], "rotation": 180, "texture": "#0"}
			}
		},
		{
			"from": [-0.98, 5.52083, 14.39583],
			"to": [-0.01, 6.52083, 23.39583],
			"rotation": {"angle": 0, "axis": "y", "origin": [9, 9.8125, 6.20833]},
			"faces": {
				"north": {"uv": [14, 8.5, 15, 9.5], "texture": "#0"},
				"east": {"uv": [15, 8.5, 14, 13], "rotation": 90, "texture": "#0"},
				"south": {"uv": [14, 9.5, 14.97, 10], "texture": "#0"},
				"west": {"uv": [14, 9, 15, 13.5], "rotation": 270, "texture": "#0"},
				"up": {"uv": [13, 10, 13.97, 14.5], "rotation": 180, "texture": "#0"},
				"down": {"uv": [15, 9.5, 15.97, 14], "rotation": 180, "texture": "#0"}
			}
		},
		{
			"from": [-1.98, 6.52083, 14.39583],
			"to": [-1.01, 7.52083, 23.39583],
			"rotation": {"angle": 0, "axis": "y", "origin": [9, 10.8125, 6.20833]},
			"faces": {
				"north": {"uv": [14, 8.5, 15, 9.5], "texture": "#0"},
				"east": {"uv": [15, 8.5, 14, 13], "rotation": 90, "texture": "#0"},
				"south": {"uv": [14, 9.5, 14.97, 10], "texture": "#0"},
				"west": {"uv": [14, 9, 15, 13.5], "rotation": 270, "texture": "#0"},
				"up": {"uv": [13, 10, 13.97, 14.5], "rotation": 180, "texture": "#0"},
				"down": {"uv": [15, 9.5, 15.97, 14], "rotation": 180, "texture": "#0"}
			}
		},
		{
			"from": [-1.98, 10.02083, 6.39583],
			"to": [-0.98, 11.02083, 15.39583],
			"rotation": {"angle": 0, "axis": "y", "origin": [9, 10.8125, 6.20833]},
			"faces": {
				"north": {"uv": [14, 8.5, 15, 9.5], "texture": "#0"},
				"east": {"uv": [15, 8.5, 14, 13], "texture": "#0"},
				"south": {"uv": [14, 9.5, 15, 10], "texture": "#0"},
				"west": {"uv": [14, 9, 15, 13.5], "rotation": 90, "texture": "#0"},
				"up": {"uv": [13, 10, 14, 14.5], "rotation": 180, "texture": "#0"},
				"down": {"uv": [15, 9.5, 16, 14], "rotation": 180, "texture": "#0"}
			}
		},
		{
			"from": [17.02, 20, 9.5],
			"to": [17.99, 29, 10.5],
			"rotation": {"angle": 22.5, "axis": "x", "origin": [27, 11.8125, 6.20833]},
			"faces": {
				"north": {"uv": [14, 8.5, 15, 15.5], "texture": "#0"},
				"east": {"uv": [15, 8.5, 14, 13], "texture": "#0"},
				"south": {"uv": [14, 9.5, 14.97, 14], "rotation": 180, "texture": "#0"},
				"west": {"uv": [14, 9, 15, 13.5], "rotation": 180, "texture": "#0"},
				"up": {"uv": [13, 10, 13.97, 10.5], "texture": "#0"},
				"down": {"uv": [15, 9.5, 15.97, 10], "rotation": 180, "texture": "#0"}
			}
		},
		{
			"from": [16.02, 19, 9.5],
			"to": [16.99, 28, 10.5],
			"rotation": {"angle": 22.5, "axis": "x", "origin": [27, 10.8125, 6.20833]},
			"faces": {
				"north": {"uv": [14, 8.5, 15, 15.5], "texture": "#0"},
				"east": {"uv": [15, 8.5, 14, 13], "texture": "#0"},
				"south": {"uv": [14, 9.5, 14.97, 14], "rotation": 180, "texture": "#0"},
				"west": {"uv": [14, 9, 15, 13.5], "rotation": 180, "texture": "#0"},
				"up": {"uv": [13, 10, 13.97, 10.5], "texture": "#0"},
				"down": {"uv": [15, 9.5, 15.97, 10], "rotation": 180, "texture": "#0"}
			}
		},
		{
			"from": [17.02, 12, 6],
			"to": [18.02, 21, 7],
			"rotation": {"angle": 45, "axis": "x", "origin": [27, 11.8125, 6.20833]},
			"faces": {
				"north": {"uv": [14, 8.5, 15, 15.5], "texture": "#0"},
				"east": {"uv": [15, 8.5, 14, 13], "texture": "#0"},
				"south": {"uv": [14, 9.5, 15, 14], "rotation": 180, "texture": "#0"},
				"west": {"uv": [14, 9, 15, 13.5], "rotation": 180, "texture": "#0"},
				"up": {"uv": [13, 10, 14, 10.5], "texture": "#0"},
				"down": {"uv": [15, 9.5, 16, 10], "rotation": 180, "texture": "#0"}
			}
		},
		{
			"from": [16.02, 11, 6],
			"to": [17.02, 20, 7],
			"rotation": {"angle": 45, "axis": "x", "origin": [27, 10.8125, 6.20833]},
			"faces": {
				"north": {"uv": [14, 8.5, 15, 15.5], "texture": "#0"},
				"east": {"uv": [15, 8.5, 14, 13], "texture": "#0"},
				"south": {"uv": [14, 9.5, 15, 14], "rotation": 180, "texture": "#0"},
				"west": {"uv": [14, 9, 15, 13.5], "rotation": 180, "texture": "#0"},
				"up": {"uv": [13, 10, 14, 10.5], "texture": "#0"},
				"down": {"uv": [15, 9.5, 16, 10], "rotation": 180, "texture": "#0"}
			}
		},
		{
			"from": [17.02, 10.02083, 6.39583],
			"to": [18, 11.02083, 15.39583],
			"rotation": {"angle": -22.5, "axis": "x", "origin": [28, 10.8125, 6.20833]},
			"faces": {
				"north": {"uv": [14, 8.5, 15, 9.5], "texture": "#0"},
				"east": {"uv": [15, 8.5, 14, 13], "rotation": 90, "texture": "#0"},
				"south": {"uv": [14, 9.5, 14.98, 10], "texture": "#0"},
				"west": {"uv": [14, 9, 15, 13.5], "rotation": 180, "texture": "#0"},
				"up": {"uv": [13, 10, 13.98, 14.5], "rotation": 180, "texture": "#0"},
				"down": {"uv": [15, 9.5, 15.98, 14], "rotation": 180, "texture": "#0"}
			}
		},
		{
			"from": [16.02, 9.02083, 6.39583],
			"to": [17, 10.02083, 15.39583],
			"rotation": {"angle": -22.5, "axis": "x", "origin": [26, 9.8125, 6.20833]},
			"faces": {
				"north": {"uv": [14, 8.5, 15, 9.5], "texture": "#0"},
				"east": {"uv": [15, 8.5, 14, 13], "texture": "#0"},
				"south": {"uv": [14, 9.5, 14.98, 10], "texture": "#0"},
				"west": {"uv": [14, 9, 15, 13.5], "rotation": 180, "texture": "#0"},
				"up": {"uv": [13, 10, 13.98, 14.5], "rotation": 180, "texture": "#0"},
				"down": {"uv": [15, 9.5, 15.98, 14], "rotation": 180, "texture": "#0"}
			}
		},
		{
			"from": [16.02, 18, 9.5],
			"to": [16.99, 27, 10.5],
			"rotation": {"angle": 45, "axis": "x", "origin": [26, 9.8125, 6.20833]},
			"faces": {
				"north": {"uv": [14, 8.5, 15, 15.5], "texture": "#0"},
				"east": {"uv": [15, 8.5, 14, 13], "texture": "#0"},
				"south": {"uv": [14, 9.5, 14.97, 14], "rotation": 180, "texture": "#0"},
				"west": {"uv": [14, 9, 15, 13.5], "rotation": 180, "texture": "#0"},
				"up": {"uv": [13, 10, 13.97, 10.5], "texture": "#0"},
				"down": {"uv": [15, 9.5, 15.97, 10], "rotation": 180, "texture": "#0"}
			}
		},
		{
			"from": [17.02, 19, 9.5],
			"to": [17.99, 28, 10.5],
			"rotation": {"angle": 45, "axis": "x", "origin": [28, 10.8125, 6.20833]},
			"faces": {
				"north": {"uv": [14, 8.5, 15, 15.5], "texture": "#0"},
				"east": {"uv": [15, 8.5, 14, 13], "texture": "#0"},
				"south": {"uv": [14, 9.5, 14.97, 14], "rotation": 180, "texture": "#0"},
				"west": {"uv": [14, 9, 15, 13.5], "rotation": 180, "texture": "#0"},
				"up": {"uv": [13, 10, 13.97, 10.5], "texture": "#0"},
				"down": {"uv": [15, 9.5, 15.97, 10], "rotation": 180, "texture": "#0"}
			}
		},
		{
			"from": [16.02, 7.52083, 14.39583],
			"to": [16.99, 8.52083, 23.39583],
			"rotation": {"angle": -22.5, "axis": "x", "origin": [26, 11.8125, 6.20833]},
			"faces": {
				"north": {"uv": [14, 8.5, 15, 9.5], "texture": "#0"},
				"east": {"uv": [15, 8.5, 14, 13], "rotation": 90, "texture": "#0"},
				"south": {"uv": [14, 9.5, 14.97, 10], "texture": "#0"},
				"west": {"uv": [14, 9, 15, 13.5], "rotation": 90, "texture": "#0"},
				"up": {"uv": [13, 10, 13.97, 14.5], "rotation": 180, "texture": "#0"},
				"down": {"uv": [15, 9.5, 15.97, 14], "rotation": 180, "texture": "#0"}
			}
		},
		{
			"from": [17.02, 6.52083, 14.39583],
			"to": [17.99, 7.52083, 23.39583],
			"rotation": {"angle": -22.5, "axis": "x", "origin": [28, 10.8125, 6.20833]},
			"faces": {
				"north": {"uv": [14, 8.5, 15, 9.5], "texture": "#0"},
				"east": {"uv": [15, 8.5, 14, 13], "rotation": 90, "texture": "#0"},
				"south": {"uv": [14, 9.5, 14.97, 10], "texture": "#0"},
				"west": {"uv": [14, 9, 15, 13.5], "rotation": 90, "texture": "#0"},
				"up": {"uv": [13, 10, 13.97, 14.5], "rotation": 180, "texture": "#0"},
				"down": {"uv": [15, 9.5, 15.97, 14], "rotation": 180, "texture": "#0"}
			}
		},
		{
			"from": [16.02, 11.02083, 6.39583],
			"to": [17.02, 12.02083, 15.39583],
			"rotation": {"angle": 0, "axis": "y", "origin": [26, 11.8125, 6.20833]},
			"faces": {
				"north": {"uv": [14, 8.5, 15, 9.5], "texture": "#0"},
				"east": {"uv": [15, 8.5, 14, 13], "rotation": 90, "texture": "#0"},
				"south": {"uv": [14, 9.5, 15, 10], "texture": "#0"},
				"west": {"uv": [14, 9, 15, 13.5], "rotation": 180, "texture": "#0"},
				"up": {"uv": [13, 10, 14, 14.5], "rotation": 180, "texture": "#0"},
				"down": {"uv": [15, 9.5, 16, 14], "rotation": 180, "texture": "#0"}
			}
		},
		{
			"from": [17.02, 10.02083, 6.39583],
			"to": [18, 11.02083, 15.39583],
			"rotation": {"angle": 22.5, "axis": "x", "origin": [28, 10.8125, 6.20833]},
			"faces": {
				"north": {"uv": [14, 8.5, 15, 9.5], "texture": "#0"},
				"east": {"uv": [15, 8.5, 14, 13], "rotation": 90, "texture": "#0"},
				"south": {"uv": [14, 9.5, 14.98, 10], "texture": "#0"},
				"west": {"uv": [14, 9, 15, 13.5], "rotation": 180, "texture": "#0"},
				"up": {"uv": [13, 10, 13.98, 14.5], "rotation": 180, "texture": "#0"},
				"down": {"uv": [15, 9.5, 15.98, 14], "rotation": 180, "texture": "#0"}
			}
		},
		{
			"from": [16.02, 9.02083, 6.39583],
			"to": [17, 10.02083, 15.39583],
			"rotation": {"angle": 22.5, "axis": "x", "origin": [26, 9.8125, 6.20833]},
			"faces": {
				"north": {"uv": [14, 8.5, 15, 9.5], "texture": "#0"},
				"east": {"uv": [15, 8.5, 14, 13], "rotation": 90, "texture": "#0"},
				"south": {"uv": [14, 9.5, 14.98, 10], "texture": "#0"},
				"west": {"uv": [14, 9, 15, 13.5], "rotation": 180, "texture": "#0"},
				"up": {"uv": [13, 10, 13.98, 14.5], "rotation": 180, "texture": "#0"},
				"down": {"uv": [15, 9.5, 15.98, 14], "rotation": 180, "texture": "#0"}
			}
		},
		{
			"from": [16.02, 5.52083, 14.39583],
			"to": [16.99, 6.52083, 23.39583],
			"rotation": {"angle": 0, "axis": "y", "origin": [26, 9.8125, 6.20833]},
			"faces": {
				"north": {"uv": [14, 8.5, 15, 9.5], "texture": "#0"},
				"east": {"uv": [15, 8.5, 14, 13], "rotation": 90, "texture": "#0"},
				"south": {"uv": [14, 9.5, 14.97, 10], "texture": "#0"},
				"west": {"uv": [14, 9, 15, 13.5], "rotation": 270, "texture": "#0"},
				"up": {"uv": [13, 10, 13.97, 14.5], "rotation": 180, "texture": "#0"},
				"down": {"uv": [15, 9.5, 15.97, 14], "rotation": 180, "texture": "#0"}
			}
		},
		{
			"from": [17.02, 6.52083, 14.39583],
			"to": [17.99, 7.52083, 23.39583],
			"rotation": {"angle": 0, "axis": "y", "origin": [28, 10.8125, 6.20833]},
			"faces": {
				"north": {"uv": [14, 8.5, 15, 9.5], "texture": "#0"},
				"east": {"uv": [15, 8.5, 14, 13], "rotation": 90, "texture": "#0"},
				"south": {"uv": [14, 9.5, 14.97, 10], "texture": "#0"},
				"west": {"uv": [14, 9, 15, 13.5], "rotation": 90, "texture": "#0"},
				"up": {"uv": [13, 10, 13.97, 14.5], "rotation": 180, "texture": "#0"},
				"down": {"uv": [15, 9.5, 15.97, 14], "rotation": 180, "texture": "#0"}
			}
		},
		{
			"from": [17.02, 10.02083, 6.39583],
			"to": [18.02, 11.02083, 15.39583],
			"rotation": {"angle": 0, "axis": "y", "origin": [28, 10.8125, 6.20833]},
			"faces": {
				"north": {"uv": [14, 8.5, 15, 9.5], "texture": "#0"},
				"east": {"uv": [15, 8.5, 14, 13], "rotation": 90, "texture": "#0"},
				"south": {"uv": [14, 9.5, 15, 10], "texture": "#0"},
				"west": {"uv": [14, 9, 15, 13.5], "rotation": 180, "texture": "#0"},
				"up": {"uv": [13, 10, 14, 14.5], "rotation": 180, "texture": "#0"},
				"down": {"uv": [15, 9.5, 16, 14], "rotation": 180, "texture": "#0"}
			}
		},
		{
			"from": [-1.5, 10, 20],
			"to": [-1.5, 14, 27],
			"rotation": {"angle": -22.5, "axis": "x", "origin": [0, 0, 0]},
			"faces": {
				"north": {"uv": [0, 9, 0, 11], "rotation": 180, "texture": "#0"},
				"east": {"uv": [13, 8, 0, 16], "rotation": 270, "texture": "#0"},
				"south": {"uv": [0, 9.5, 0, 11.5], "texture": "#0"},
				"west": {"uv": [0, 8, 13, 16], "rotation": 90, "texture": "#0"},
				"up": {"uv": [1, 9, 1, 12.5], "rotation": 180, "texture": "#0"},
				"down": {"uv": [0, 9.5, 0, 13], "texture": "#0"}
			}
		},
		{
			"from": [16.5, 10, 20],
			"to": [16.5, 14, 27],
			"rotation": {"angle": -22.5, "axis": "x", "origin": [18, 0, 0]},
			"faces": {
				"north": {"uv": [0, 9, 0, 11], "rotation": 180, "texture": "#0"},
				"east": {"uv": [13, 8, 0, 16], "rotation": 270, "texture": "#0"},
				"south": {"uv": [0, 9.5, 0, 11.5], "texture": "#0"},
				"west": {"uv": [0, 8, 13, 16], "rotation": 90, "texture": "#0"},
				"up": {"uv": [1, 9, 1, 12.5], "rotation": 180, "texture": "#0"},
				"down": {"uv": [0, 9.5, 0, 13], "texture": "#0"}
			}
		},
		{
			"from": [-1.5, 8.5, 18],
			"to": [-1.5, 12.5, 25],
			"rotation": {"angle": -22.5, "axis": "x", "origin": [0, 0, 0]},
			"faces": {
				"north": {"uv": [0, 9, 0, 11], "rotation": 180, "texture": "#0"},
				"east": {"uv": [13, 8, 0, 16], "rotation": 270, "texture": "#0"},
				"south": {"uv": [0, 9.5, 0, 11.5], "texture": "#0"},
				"west": {"uv": [0, 8, 13, 16], "rotation": 90, "texture": "#0"},
				"up": {"uv": [1, 9, 1, 12.5], "rotation": 180, "texture": "#0"},
				"down": {"uv": [0, 9.5, 0, 13], "texture": "#0"}
			}
		},
		{
			"from": [16.5, 8.08, 18],
			"to": [16.5, 12.08, 25],
			"rotation": {"angle": -22.5, "axis": "x", "origin": [18, 0, 0]},
			"faces": {
				"north": {"uv": [0, 9, 0, 11], "rotation": 180, "texture": "#0"},
				"east": {"uv": [13, 8, 0, 16], "rotation": 270, "texture": "#0"},
				"south": {"uv": [0, 9.5, 0, 11.5], "texture": "#0"},
				"west": {"uv": [0, 8, 13, 16], "rotation": 90, "texture": "#0"},
				"up": {"uv": [1, 9, 1, 12.5], "rotation": 180, "texture": "#0"},
				"down": {"uv": [0, 9.5, 0, 13], "texture": "#0"}
			}
		},
		{
			"from": [-1.5, 13, 23],
			"to": [-1.5, 17, 30],
			"rotation": {"angle": -22.5, "axis": "x", "origin": [0, 0, 0]},
			"faces": {
				"north": {"uv": [0, 9, 0, 11], "rotation": 180, "texture": "#0"},
				"east": {"uv": [13, 8, 0, 16], "rotation": 270, "texture": "#0"},
				"south": {"uv": [0, 9.5, 0, 11.5], "texture": "#0"},
				"west": {"uv": [0, 8, 13, 16], "rotation": 90, "texture": "#0"},
				"up": {"uv": [1, 9, 1, 12.5], "rotation": 180, "texture": "#0"},
				"down": {"uv": [0, 9.5, 0, 13], "texture": "#0"}
			}
		},
		{
			"from": [16.5, 13, 23],
			"to": [16.5, 17, 30],
			"rotation": {"angle": -22.5, "axis": "x", "origin": [18, 0, 0]},
			"faces": {
				"north": {"uv": [0, 9, 0, 11], "rotation": 180, "texture": "#0"},
				"east": {"uv": [13, 8, 0, 16], "rotation": 270, "texture": "#0"},
				"south": {"uv": [0, 9.5, 0, 11.5], "texture": "#0"},
				"west": {"uv": [0, 8, 13, 16], "rotation": 90, "texture": "#0"},
				"up": {"uv": [1, 9, 1, 12.5], "rotation": 180, "texture": "#0"},
				"down": {"uv": [0, 9.5, 0, 13], "texture": "#0"}
			}
		},
		{
			"from": [-1.5, 11, 22],
			"to": [-1.5, 15, 29],
			"rotation": {"angle": -22.5, "axis": "x", "origin": [0, 0, 0]},
			"faces": {
				"north": {"uv": [0, 9, 0, 11], "rotation": 180, "texture": "#0"},
				"east": {"uv": [13, 8, 0, 16], "rotation": 270, "texture": "#0"},
				"south": {"uv": [0, 9.5, 0, 11.5], "texture": "#0"},
				"west": {"uv": [0, 8, 13, 16], "rotation": 90, "texture": "#0"},
				"up": {"uv": [1, 9, 1, 12.5], "rotation": 180, "texture": "#0"},
				"down": {"uv": [0, 9.5, 0, 13], "texture": "#0"}
			}
		},
		{
			"from": [16.5, 11, 22],
			"to": [16.5, 15, 29],
			"rotation": {"angle": -22.5, "axis": "x", "origin": [18, 0, 0]},
			"faces": {
				"north": {"uv": [0, 9, 0, 11], "rotation": 180, "texture": "#0"},
				"east": {"uv": [13, 8, 0, 16], "rotation": 270, "texture": "#0"},
				"south": {"uv": [0, 9.5, 0, 11.5], "texture": "#0"},
				"west": {"uv": [0, 8, 13, 16], "rotation": 90, "texture": "#0"},
				"up": {"uv": [1, 9, 1, 12.5], "rotation": 180, "texture": "#0"},
				"down": {"uv": [0, 9.5, 0, 13], "texture": "#0"}
			}
		},
		{
			"from": [-1.5, 7, 15],
			"to": [-1.5, 11, 22],
			"rotation": {"angle": -22.5, "axis": "x", "origin": [0, 0, 0]},
			"faces": {
				"north": {"uv": [0, 9, 0, 11], "rotation": 180, "texture": "#0"},
				"east": {"uv": [13, 8, 0, 16], "rotation": 270, "texture": "#0"},
				"south": {"uv": [0, 9.5, 0, 11.5], "texture": "#0"},
				"west": {"uv": [0, 8, 13, 16], "rotation": 90, "texture": "#0"},
				"up": {"uv": [1, 9, 1, 12.5], "rotation": 180, "texture": "#0"},
				"down": {"uv": [0, 9.5, 0, 13], "texture": "#0"}
			}
		},
		{
			"from": [16.5, 6.4, 15],
			"to": [16.5, 10.4, 22],
			"rotation": {"angle": -22.5, "axis": "x", "origin": [18, 0, 0]},
			"faces": {
				"north": {"uv": [0, 9, 0, 11], "rotation": 180, "texture": "#0"},
				"east": {"uv": [13, 8, 0, 16], "rotation": 270, "texture": "#0"},
				"south": {"uv": [0, 9.5, 0, 11.5], "texture": "#0"},
				"west": {"uv": [0, 8, 13, 16], "rotation": 90, "texture": "#0"},
				"up": {"uv": [1, 9, 1, 12.5], "rotation": 180, "texture": "#0"},
				"down": {"uv": [0, 9.5, 0, 13], "texture": "#0"}
			}
		},
		{
			"from": [-1.5, 6, 25],
			"to": [-1.5, 10, 32],
			"rotation": {"angle": -22.5, "axis": "x", "origin": [0, 0, 0]},
			"faces": {
				"north": {"uv": [0, 9, 0, 11], "rotation": 180, "texture": "#0"},
				"east": {"uv": [13, 8, 0, 16], "rotation": 270, "texture": "#0"},
				"south": {"uv": [0, 9.5, 0, 11.5], "texture": "#0"},
				"west": {"uv": [0, 8, 13, 16], "rotation": 90, "texture": "#0"},
				"up": {"uv": [1, 9, 1, 12.5], "rotation": 180, "texture": "#0"},
				"down": {"uv": [0, 9.5, 0, 13], "texture": "#0"}
			}
		},
		{
			"from": [16.5, 6, 25],
			"to": [16.5, 10, 32],
			"rotation": {"angle": -22.5, "axis": "x", "origin": [18, 0, 0]},
			"faces": {
				"north": {"uv": [0, 9, 0, 11], "rotation": 180, "texture": "#0"},
				"east": {"uv": [13, 8, 0, 16], "rotation": 270, "texture": "#0"},
				"south": {"uv": [0, 9.5, 0, 11.5], "texture": "#0"},
				"west": {"uv": [0, 8, 13, 16], "rotation": 90, "texture": "#0"},
				"up": {"uv": [1, 9, 1, 12.5], "rotation": 180, "texture": "#0"},
				"down": {"uv": [0, 9.5, 0, 13], "texture": "#0"}
			}
		},
		{
			"from": [-1.5, 5, 22],
			"to": [-1.5, 9, 29],
			"rotation": {"angle": -22.5, "axis": "x", "origin": [0, 0, 0]},
			"faces": {
				"north": {"uv": [0, 9, 0, 11], "rotation": 180, "texture": "#0"},
				"east": {"uv": [13, 8, 0, 16], "rotation": 270, "texture": "#0"},
				"south": {"uv": [0, 9.5, 0, 11.5], "texture": "#0"},
				"west": {"uv": [0, 8, 13, 16], "rotation": 90, "texture": "#0"},
				"up": {"uv": [1, 9, 1, 12.5], "rotation": 180, "texture": "#0"},
				"down": {"uv": [0, 9.5, 0, 13], "texture": "#0"}
			}
		},
		{
			"from": [16.5, 5, 22],
			"to": [16.5, 9, 29],
			"rotation": {"angle": -22.5, "axis": "x", "origin": [18, 0, 0]},
			"faces": {
				"north": {"uv": [0, 9, 0, 11], "rotation": 180, "texture": "#0"},
				"east": {"uv": [13, 8, 0, 16], "rotation": 270, "texture": "#0"},
				"south": {"uv": [0, 9.5, 0, 11.5], "texture": "#0"},
				"west": {"uv": [0, 8, 13, 16], "rotation": 90, "texture": "#0"},
				"up": {"uv": [1, 9, 1, 12.5], "rotation": 180, "texture": "#0"},
				"down": {"uv": [0, 9.5, 0, 13], "texture": "#0"}
			}
		},
		{
			"from": [-1.5, 4, 20],
			"to": [-1.5, 8, 27],
			"rotation": {"angle": -22.5, "axis": "x", "origin": [0, 0, 0]},
			"faces": {
				"north": {"uv": [0, 9, 0, 11], "rotation": 180, "texture": "#0"},
				"east": {"uv": [13, 8, 0, 16], "rotation": 270, "texture": "#0"},
				"south": {"uv": [0, 9.5, 0, 11.5], "texture": "#0"},
				"west": {"uv": [0, 8, 13, 16], "rotation": 90, "texture": "#0"},
				"up": {"uv": [1, 9, 1, 12.5], "rotation": 180, "texture": "#0"},
				"down": {"uv": [0, 9.5, 0, 13], "texture": "#0"}
			}
		},
		{
			"from": [16.5, 4, 20],
			"to": [16.5, 8, 27],
			"rotation": {"angle": -22.5, "axis": "x", "origin": [18, 0, 0]},
			"faces": {
				"north": {"uv": [0, 9, 0, 11], "rotation": 180, "texture": "#0"},
				"east": {"uv": [13, 8, 0, 16], "rotation": 270, "texture": "#0"},
				"south": {"uv": [0, 9.5, 0, 11.5], "texture": "#0"},
				"west": {"uv": [0, 8, 13, 16], "rotation": 90, "texture": "#0"},
				"up": {"uv": [1, 9, 1, 12.5], "rotation": 180, "texture": "#0"},
				"down": {"uv": [0, 9.5, 0, 13], "texture": "#0"}
			}
		},
		{
			"from": [-1.5, 0, 25],
			"to": [-1.5, 4, 32],
			"rotation": {"angle": -22.5, "axis": "x", "origin": [0, 0, 0]},
			"faces": {
				"north": {"uv": [0, 9, 0, 11], "rotation": 180, "texture": "#0"},
				"east": {"uv": [13, 8, 0, 16], "rotation": 270, "texture": "#0"},
				"south": {"uv": [0, 9.5, 0, 11.5], "texture": "#0"},
				"west": {"uv": [0, 8, 13, 16], "rotation": 90, "texture": "#0"},
				"up": {"uv": [1, 9, 1, 12.5], "rotation": 180, "texture": "#0"},
				"down": {"uv": [0, 9.5, 0, 13], "texture": "#0"}
			}
		},
		{
			"from": [16.5, 0, 25],
			"to": [16.5, 4, 32],
			"rotation": {"angle": -22.5, "axis": "x", "origin": [18, 0, 0]},
			"faces": {
				"north": {"uv": [0, 9, 0, 11], "rotation": 180, "texture": "#0"},
				"east": {"uv": [13, 8, 0, 16], "rotation": 270, "texture": "#0"},
				"south": {"uv": [0, 9.5, 0, 11.5], "texture": "#0"},
				"west": {"uv": [0, 8, 13, 16], "rotation": 90, "texture": "#0"},
				"up": {"uv": [1, 9, 1, 12.5], "rotation": 180, "texture": "#0"},
				"down": {"uv": [0, 9.5, 0, 13], "texture": "#0"}
			}
		},
		{
			"from": [-1.5, 0, 22],
			"to": [-1.5, 4, 29],
			"rotation": {"angle": -22.5, "axis": "x", "origin": [0, 0, 0]},
			"faces": {
				"north": {"uv": [0, 9, 0, 11], "rotation": 180, "texture": "#0"},
				"east": {"uv": [13, 8, 0, 16], "rotation": 270, "texture": "#0"},
				"south": {"uv": [0, 9.5, 0, 11.5], "texture": "#0"},
				"west": {"uv": [0, 8, 13, 16], "rotation": 90, "texture": "#0"},
				"up": {"uv": [1, 9, 1, 12.5], "rotation": 180, "texture": "#0"},
				"down": {"uv": [0, 9.5, 0, 13], "texture": "#0"}
			}
		},
		{
			"from": [16.5, 0, 22],
			"to": [16.5, 4, 29],
			"rotation": {"angle": -22.5, "axis": "x", "origin": [18, 0, 0]},
			"faces": {
				"north": {"uv": [0, 9, 0, 11], "rotation": 180, "texture": "#0"},
				"east": {"uv": [13, 8, 0, 16], "rotation": 270, "texture": "#0"},
				"south": {"uv": [0, 9.5, 0, 11.5], "texture": "#0"},
				"west": {"uv": [0, 8, 13, 16], "rotation": 90, "texture": "#0"},
				"up": {"uv": [1, 9, 1, 12.5], "rotation": 180, "texture": "#0"},
				"down": {"uv": [0, 9.5, 0, 13], "texture": "#0"}
			}
		},
		{
			"from": [-1.5, -1, 20],
			"to": [-1.5, 3, 27],
			"rotation": {"angle": -22.5, "axis": "x", "origin": [0, 0, 0]},
			"faces": {
				"north": {"uv": [0, 9, 0, 11], "rotation": 180, "texture": "#0"},
				"east": {"uv": [13, 8, 0, 16], "rotation": 270, "texture": "#0"},
				"south": {"uv": [0, 9.5, 0, 11.5], "texture": "#0"},
				"west": {"uv": [0, 8, 13, 16], "rotation": 90, "texture": "#0"},
				"up": {"uv": [1, 9, 1, 12.5], "rotation": 180, "texture": "#0"},
				"down": {"uv": [0, 9.5, 0, 13], "texture": "#0"}
			}
		},
		{
			"from": [16.52, 0, 19],
			"to": [16.52, 4, 26],
			"rotation": {"angle": -22.5, "axis": "x", "origin": [18, 0, 0]},
			"faces": {
				"north": {"uv": [0, 9, 0, 11], "rotation": 180, "texture": "#0"},
				"east": {"uv": [13, 8, 0, 16], "rotation": 270, "texture": "#0"},
				"south": {"uv": [0, 9.5, 0, 11.5], "texture": "#0"},
				"west": {"uv": [0, 8, 13, 16], "rotation": 90, "texture": "#0"},
				"up": {"uv": [1, 9, 1, 12.5], "rotation": 180, "texture": "#0"},
				"down": {"uv": [0, 9.5, 0, 13], "texture": "#0"}
			}
		},
		{
			"from": [-1.5, 7, 15],
			"to": [-1.5, 11, 22],
			"faces": {
				"north": {"uv": [0, 9, 0, 11], "rotation": 180, "texture": "#0"},
				"east": {"uv": [13, 8, 0, 16], "rotation": 270, "texture": "#0"},
				"south": {"uv": [0, 9.5, 0, 11.5], "texture": "#0"},
				"west": {"uv": [0, 8, 13, 16], "rotation": 90, "texture": "#0"},
				"up": {"uv": [1, 9, 1, 12.5], "rotation": 180, "texture": "#0"},
				"down": {"uv": [0, 9.5, 0, 13], "texture": "#0"}
			}
		},
		{
			"from": [16.5, 7, 15],
			"to": [16.5, 11, 22],
			"rotation": {"angle": 0, "axis": "y", "origin": [18, 0, 0]},
			"faces": {
				"north": {"uv": [0, 9, 0, 11], "rotation": 180, "texture": "#0"},
				"east": {"uv": [13, 8, 0, 16], "rotation": 270, "texture": "#0"},
				"south": {"uv": [0, 9.5, 0, 11.5], "texture": "#0"},
				"west": {"uv": [0, 8, 13, 16], "rotation": 90, "texture": "#0"},
				"up": {"uv": [1, 9, 1, 12.5], "rotation": 180, "texture": "#0"},
				"down": {"uv": [0, 9.5, 0, 13], "texture": "#0"}
			}
		},
		{
			"from": [-1.5, 7, 11],
			"to": [-1.5, 11, 18],
			"faces": {
				"north": {"uv": [0, 9, 0, 11], "rotation": 180, "texture": "#0"},
				"east": {"uv": [13, 8, 0, 16], "rotation": 270, "texture": "#0"},
				"south": {"uv": [0, 9.5, 0, 11.5], "texture": "#0"},
				"west": {"uv": [0, 8, 13, 16], "rotation": 90, "texture": "#0"},
				"up": {"uv": [1, 9, 1, 12.5], "rotation": 180, "texture": "#0"},
				"down": {"uv": [0, 9.5, 0, 13], "texture": "#0"}
			}
		},
		{
			"from": [16.5, 7, 11],
			"to": [16.5, 11, 18],
			"rotation": {"angle": 0, "axis": "y", "origin": [18, 0, 0]},
			"faces": {
				"north": {"uv": [0, 9, 0, 11], "rotation": 180, "texture": "#0"},
				"east": {"uv": [13, 8, 0, 16], "rotation": 270, "texture": "#0"},
				"south": {"uv": [0, 9.5, 0, 11.5], "texture": "#0"},
				"west": {"uv": [0, 8, 13, 16], "rotation": 90, "texture": "#0"},
				"up": {"uv": [1, 9, 1, 12.5], "rotation": 180, "texture": "#0"},
				"down": {"uv": [0, 9.5, 0, 13], "texture": "#0"}
			}
		},
		{
			"from": [-0.5, 9, 20],
			"to": [-0.5, 13, 27],
			"rotation": {"angle": -22.5, "axis": "x", "origin": [1, -1, 0]},
			"faces": {
				"north": {"uv": [0, 9, 0, 11], "rotation": 180, "texture": "#0"},
				"east": {"uv": [13, 8, 0, 16], "rotation": 270, "texture": "#0"},
				"south": {"uv": [0, 9.5, 0, 11.5], "texture": "#0"},
				"west": {"uv": [0, 8, 13, 16], "rotation": 90, "texture": "#0"},
				"up": {"uv": [1, 9, 1, 12.5], "rotation": 180, "texture": "#0"},
				"down": {"uv": [0, 9.5, 0, 13], "texture": "#0"}
			}
		},
		{
			"from": [17.5, 9, 20],
			"to": [17.5, 13, 27],
			"rotation": {"angle": -22.5, "axis": "x", "origin": [19, -1, 0]},
			"faces": {
				"north": {"uv": [0, 9, 0, 11], "rotation": 180, "texture": "#0"},
				"east": {"uv": [13, 8, 0, 16], "rotation": 270, "texture": "#0"},
				"south": {"uv": [0, 9.5, 0, 11.5], "texture": "#0"},
				"west": {"uv": [0, 8, 13, 16], "rotation": 90, "texture": "#0"},
				"up": {"uv": [1, 9, 1, 12.5], "rotation": 180, "texture": "#0"},
				"down": {"uv": [0, 9.5, 0, 13], "texture": "#0"}
			}
		},
		{
			"from": [-0.5, 7.5, 18],
			"to": [-0.5, 11.5, 25],
			"rotation": {"angle": -22.5, "axis": "x", "origin": [1, -1, 0]},
			"faces": {
				"north": {"uv": [0, 9, 0, 11], "rotation": 180, "texture": "#0"},
				"east": {"uv": [13, 8, 0, 16], "rotation": 270, "texture": "#0"},
				"south": {"uv": [0, 9.5, 0, 11.5], "texture": "#0"},
				"west": {"uv": [0, 8, 13, 16], "rotation": 90, "texture": "#0"},
				"up": {"uv": [1, 9, 1, 12.5], "rotation": 180, "texture": "#0"},
				"down": {"uv": [0, 9.5, 0, 13], "texture": "#0"}
			}
		},
		{
			"from": [17.5, 7.5, 18],
			"to": [17.5, 11.5, 25],
			"rotation": {"angle": -22.5, "axis": "x", "origin": [19, -1, 0]},
			"faces": {
				"north": {"uv": [0, 9, 0, 11], "rotation": 180, "texture": "#0"},
				"east": {"uv": [13, 8, 0, 16], "rotation": 270, "texture": "#0"},
				"south": {"uv": [0, 9.5, 0, 11.5], "texture": "#0"},
				"west": {"uv": [0, 8, 13, 16], "rotation": 90, "texture": "#0"},
				"up": {"uv": [1, 9, 1, 12.5], "rotation": 180, "texture": "#0"},
				"down": {"uv": [0, 9.5, 0, 13], "texture": "#0"}
			}
		},
		{
			"from": [-0.5, 12, 23],
			"to": [-0.5, 16, 30],
			"rotation": {"angle": -22.5, "axis": "x", "origin": [1, -1, 0]},
			"faces": {
				"north": {"uv": [0, 9, 0, 11], "rotation": 180, "texture": "#0"},
				"east": {"uv": [13, 8, 0, 16], "rotation": 270, "texture": "#0"},
				"south": {"uv": [0, 9.5, 0, 11.5], "texture": "#0"},
				"west": {"uv": [0, 8, 13, 16], "rotation": 90, "texture": "#0"},
				"up": {"uv": [1, 9, 1, 12.5], "rotation": 180, "texture": "#0"},
				"down": {"uv": [0, 9.5, 0, 13], "texture": "#0"}
			}
		},
		{
			"from": [17.5, 12, 23],
			"to": [17.5, 16, 30],
			"rotation": {"angle": -22.5, "axis": "x", "origin": [19, -1, 0]},
			"faces": {
				"north": {"uv": [0, 9, 0, 11], "rotation": 180, "texture": "#0"},
				"east": {"uv": [13, 8, 0, 16], "rotation": 270, "texture": "#0"},
				"south": {"uv": [0, 9.5, 0, 11.5], "texture": "#0"},
				"west": {"uv": [0, 8, 13, 16], "rotation": 90, "texture": "#0"},
				"up": {"uv": [1, 9, 1, 12.5], "rotation": 180, "texture": "#0"},
				"down": {"uv": [0, 9.5, 0, 13], "texture": "#0"}
			}
		},
		{
			"from": [-0.5, 10, 22],
			"to": [-0.5, 14, 29],
			"rotation": {"angle": -22.5, "axis": "x", "origin": [1, -1, 0]},
			"faces": {
				"north": {"uv": [0, 9, 0, 11], "rotation": 180, "texture": "#0"},
				"east": {"uv": [13, 8, 0, 16], "rotation": 270, "texture": "#0"},
				"south": {"uv": [0, 9.5, 0, 11.5], "texture": "#0"},
				"west": {"uv": [0, 8, 13, 16], "rotation": 90, "texture": "#0"},
				"up": {"uv": [1, 9, 1, 12.5], "rotation": 180, "texture": "#0"},
				"down": {"uv": [0, 9.5, 0, 13], "texture": "#0"}
			}
		},
		{
			"from": [17.5, 10, 22],
			"to": [17.5, 14, 29],
			"rotation": {"angle": -22.5, "axis": "x", "origin": [19, -1, 0]},
			"faces": {
				"north": {"uv": [0, 9, 0, 11], "rotation": 180, "texture": "#0"},
				"east": {"uv": [13, 8, 0, 16], "rotation": 270, "texture": "#0"},
				"south": {"uv": [0, 9.5, 0, 11.5], "texture": "#0"},
				"west": {"uv": [0, 8, 13, 16], "rotation": 90, "texture": "#0"},
				"up": {"uv": [1, 9, 1, 12.5], "rotation": 180, "texture": "#0"},
				"down": {"uv": [0, 9.5, 0, 13], "texture": "#0"}
			}
		},
		{
			"from": [-0.5, 6, 16],
			"to": [-0.5, 10, 23],
			"rotation": {"angle": -22.5, "axis": "x", "origin": [1, -1, 0]},
			"faces": {
				"north": {"uv": [0, 9, 0, 11], "rotation": 180, "texture": "#0"},
				"east": {"uv": [13, 8, 0, 16], "rotation": 270, "texture": "#0"},
				"south": {"uv": [0, 9.5, 0, 11.5], "texture": "#0"},
				"west": {"uv": [0, 8, 13, 16], "rotation": 90, "texture": "#0"},
				"up": {"uv": [1, 9, 1, 12.5], "rotation": 180, "texture": "#0"},
				"down": {"uv": [0, 9.5, 0, 13], "texture": "#0"}
			}
		},
		{
			"from": [17.51, 6, 14],
			"to": [17.51, 10, 21],
			"rotation": {"angle": -22.5, "axis": "x", "origin": [19, -1, 0]},
			"faces": {
				"north": {"uv": [0, 9, 0, 11], "rotation": 180, "texture": "#0"},
				"east": {"uv": [13, 8, 0, 16], "rotation": 270, "texture": "#0"},
				"south": {"uv": [0, 9.5, 0, 11.5], "texture": "#0"},
				"west": {"uv": [0, 8, 13, 16], "rotation": 90, "texture": "#0"},
				"up": {"uv": [1, 9, 1, 12.5], "rotation": 180, "texture": "#0"},
				"down": {"uv": [0, 9.5, 0, 13], "texture": "#0"}
			}
		},
		{
			"from": [-0.5, 5, 25],
			"to": [-0.5, 9, 32],
			"rotation": {"angle": -22.5, "axis": "x", "origin": [1, -1, 0]},
			"faces": {
				"north": {"uv": [0, 9, 0, 11], "rotation": 180, "texture": "#0"},
				"east": {"uv": [13, 8, 0, 16], "rotation": 270, "texture": "#0"},
				"south": {"uv": [0, 9.5, 0, 11.5], "texture": "#0"},
				"west": {"uv": [0, 8, 13, 16], "rotation": 90, "texture": "#0"},
				"up": {"uv": [1, 9, 1, 12.5], "rotation": 180, "texture": "#0"},
				"down": {"uv": [0, 9.5, 0, 13], "texture": "#0"}
			}
		},
		{
			"from": [17.5, 5, 25],
			"to": [17.5, 9, 32],
			"rotation": {"angle": -22.5, "axis": "x", "origin": [19, -1, 0]},
			"faces": {
				"north": {"uv": [0, 9, 0, 11], "rotation": 180, "texture": "#0"},
				"east": {"uv": [13, 8, 0, 16], "rotation": 270, "texture": "#0"},
				"south": {"uv": [0, 9.5, 0, 11.5], "texture": "#0"},
				"west": {"uv": [0, 8, 13, 16], "rotation": 90, "texture": "#0"},
				"up": {"uv": [1, 9, 1, 12.5], "rotation": 180, "texture": "#0"},
				"down": {"uv": [0, 9.5, 0, 13], "texture": "#0"}
			}
		},
		{
			"from": [-0.5, 4, 22],
			"to": [-0.5, 8, 29],
			"rotation": {"angle": -22.5, "axis": "x", "origin": [1, -1, 0]},
			"faces": {
				"north": {"uv": [0, 9, 0, 11], "rotation": 180, "texture": "#0"},
				"east": {"uv": [13, 8, 0, 16], "rotation": 270, "texture": "#0"},
				"south": {"uv": [0, 9.5, 0, 11.5], "texture": "#0"},
				"west": {"uv": [0, 8, 13, 16], "rotation": 90, "texture": "#0"},
				"up": {"uv": [1, 9, 1, 12.5], "rotation": 180, "texture": "#0"},
				"down": {"uv": [0, 9.5, 0, 13], "texture": "#0"}
			}
		},
		{
			"from": [17.5, 4, 22],
			"to": [17.5, 8, 29],
			"rotation": {"angle": -22.5, "axis": "x", "origin": [19, -1, 0]},
			"faces": {
				"north": {"uv": [0, 9, 0, 11], "rotation": 180, "texture": "#0"},
				"east": {"uv": [13, 8, 0, 16], "rotation": 270, "texture": "#0"},
				"south": {"uv": [0, 9.5, 0, 11.5], "texture": "#0"},
				"west": {"uv": [0, 8, 13, 16], "rotation": 90, "texture": "#0"},
				"up": {"uv": [1, 9, 1, 12.5], "rotation": 180, "texture": "#0"},
				"down": {"uv": [0, 9.5, 0, 13], "texture": "#0"}
			}
		},
		{
			"from": [-0.5, 3, 19],
			"to": [-0.5, 7, 26],
			"rotation": {"angle": -22.5, "axis": "x", "origin": [1, -1, 0]},
			"faces": {
				"north": {"uv": [0, 9, 0, 11], "rotation": 180, "texture": "#0"},
				"east": {"uv": [13, 8, 0, 16], "rotation": 270, "texture": "#0"},
				"south": {"uv": [0, 9.5, 0, 11.5], "texture": "#0"},
				"west": {"uv": [0, 8, 13, 16], "rotation": 90, "texture": "#0"},
				"up": {"uv": [1, 9, 1, 12.5], "rotation": 180, "texture": "#0"},
				"down": {"uv": [0, 9.5, 0, 13], "texture": "#0"}
			}
		},
		{
			"from": [17.5, 3, 19],
			"to": [17.5, 7, 26],
			"rotation": {"angle": -22.5, "axis": "x", "origin": [19, -1, 0]},
			"faces": {
				"north": {"uv": [0, 9, 0, 11], "rotation": 180, "texture": "#0"},
				"east": {"uv": [13, 8, 0, 16], "rotation": 270, "texture": "#0"},
				"south": {"uv": [0, 9.5, 0, 11.5], "texture": "#0"},
				"west": {"uv": [0, 8, 13, 16], "rotation": 90, "texture": "#0"},
				"up": {"uv": [1, 9, 1, 12.5], "rotation": 180, "texture": "#0"},
				"down": {"uv": [0, 9.5, 0, 13], "texture": "#0"}
			}
		},
		{
			"from": [-0.5, -1, 25],
			"to": [-0.5, 3, 32],
			"rotation": {"angle": -22.5, "axis": "x", "origin": [1, -1, 0]},
			"faces": {
				"north": {"uv": [0, 9, 0, 11], "rotation": 180, "texture": "#0"},
				"east": {"uv": [13, 8, 0, 16], "rotation": 270, "texture": "#0"},
				"south": {"uv": [0, 9.5, 0, 11.5], "texture": "#0"},
				"west": {"uv": [0, 8, 13, 16], "rotation": 90, "texture": "#0"},
				"up": {"uv": [1, 9, 1, 12.5], "rotation": 180, "texture": "#0"},
				"down": {"uv": [0, 9.5, 0, 13], "texture": "#0"}
			}
		},
		{
			"from": [17.5, -1, 25],
			"to": [17.5, 3, 32],
			"rotation": {"angle": -22.5, "axis": "x", "origin": [19, -1, 0]},
			"faces": {
				"north": {"uv": [0, 9, 0, 11], "rotation": 180, "texture": "#0"},
				"east": {"uv": [13, 8, 0, 16], "rotation": 270, "texture": "#0"},
				"south": {"uv": [0, 9.5, 0, 11.5], "texture": "#0"},
				"west": {"uv": [0, 8, 13, 16], "rotation": 90, "texture": "#0"},
				"up": {"uv": [1, 9, 1, 12.5], "rotation": 180, "texture": "#0"},
				"down": {"uv": [0, 9.5, 0, 13], "texture": "#0"}
			}
		},
		{
			"from": [-0.5, -1, 22],
			"to": [-0.5, 3, 29],
			"rotation": {"angle": -22.5, "axis": "x", "origin": [1, -1, 0]},
			"faces": {
				"north": {"uv": [0, 9, 0, 11], "rotation": 180, "texture": "#0"},
				"east": {"uv": [13, 8, 0, 16], "rotation": 270, "texture": "#0"},
				"south": {"uv": [0, 9.5, 0, 11.5], "texture": "#0"},
				"west": {"uv": [0, 8, 13, 16], "rotation": 90, "texture": "#0"},
				"up": {"uv": [1, 9, 1, 12.5], "rotation": 180, "texture": "#0"},
				"down": {"uv": [0, 9.5, 0, 13], "texture": "#0"}
			}
		},
		{
			"from": [17.52, -1, 22],
			"to": [17.52, 3, 29],
			"rotation": {"angle": -22.5, "axis": "x", "origin": [19, -1, 0]},
			"faces": {
				"north": {"uv": [0, 9, 0, 11], "rotation": 180, "texture": "#0"},
				"east": {"uv": [13, 8, 0, 16], "rotation": 270, "texture": "#0"},
				"south": {"uv": [0, 9.5, 0, 11.5], "texture": "#0"},
				"west": {"uv": [0, 8, 13, 16], "rotation": 90, "texture": "#0"},
				"up": {"uv": [1, 9, 1, 12.5], "rotation": 180, "texture": "#0"},
				"down": {"uv": [0, 9.5, 0, 13], "texture": "#0"}
			}
		},
		{
			"from": [-0.5, -2, 20],
			"to": [-0.5, 2, 27],
			"rotation": {"angle": -22.5, "axis": "x", "origin": [1, -1, 0]},
			"faces": {
				"north": {"uv": [0, 9, 0, 11], "rotation": 180, "texture": "#0"},
				"east": {"uv": [13, 8, 0, 16], "rotation": 270, "texture": "#0"},
				"south": {"uv": [0, 9.5, 0, 11.5], "texture": "#0"},
				"west": {"uv": [0, 8, 13, 16], "rotation": 90, "texture": "#0"},
				"up": {"uv": [1, 9, 1, 12.5], "rotation": 180, "texture": "#0"},
				"down": {"uv": [0, 9.5, 0, 13], "texture": "#0"}
			}
		},
		{
			"from": [17.5, -1, 20],
			"to": [17.5, 3, 27],
			"rotation": {"angle": -22.5, "axis": "x", "origin": [19, -1, 0]},
			"faces": {
				"north": {"uv": [0, 9, 0, 11], "rotation": 180, "texture": "#0"},
				"east": {"uv": [13, 8, 0, 16], "rotation": 270, "texture": "#0"},
				"south": {"uv": [0, 9.5, 0, 11.5], "texture": "#0"},
				"west": {"uv": [0, 8, 13, 16], "rotation": 90, "texture": "#0"},
				"up": {"uv": [1, 9, 1, 12.5], "rotation": 180, "texture": "#0"},
				"down": {"uv": [0, 9.5, 0, 13], "texture": "#0"}
			}
		},
		{
			"from": [-0.5, 6, 14],
			"to": [-0.5, 10, 21],
			"rotation": {"angle": 0, "axis": "y", "origin": [1, -1, 0]},
			"faces": {
				"north": {"uv": [0, 9, 0, 11], "rotation": 180, "texture": "#0"},
				"east": {"uv": [13, 8, 0, 16], "rotation": 270, "texture": "#0"},
				"south": {"uv": [0, 9.5, 0, 11.5], "texture": "#0"},
				"west": {"uv": [0, 8, 13, 16], "rotation": 90, "texture": "#0"},
				"up": {"uv": [1, 9, 1, 12.5], "rotation": 180, "texture": "#0"},
				"down": {"uv": [0, 9.5, 0, 13], "texture": "#0"}
			}
		},
		{
			"from": [17.5, 7, 12],
			"to": [17.5, 11, 19],
			"rotation": {"angle": 0, "axis": "y", "origin": [19, -1, 0]},
			"faces": {
				"north": {"uv": [0, 9, 0, 11], "rotation": 180, "texture": "#0"},
				"east": {"uv": [13, 8, 0, 16], "rotation": 270, "texture": "#0"},
				"south": {"uv": [0, 9.5, 0, 11.5], "texture": "#0"},
				"west": {"uv": [0, 8, 13, 16], "rotation": 90, "texture": "#0"},
				"up": {"uv": [1, 9, 1, 12.5], "rotation": 180, "texture": "#0"},
				"down": {"uv": [0, 9.5, 0, 13], "texture": "#0"}
			}
		}
	],
	"display": {
		"thirdperson_righthand": {
			"translation": [0, 2.5, 0],
			"scale": [0.5, 0.5, 0.5]
		},
		"thirdperson_lefthand": {
			"translation": [0, 2.5, 0],
			"scale": [0.5, 0.5, 0.5]
		},
		"firstperson_righthand": {
			"translation": [0, 3.75, 0],
			"scale": [0.5, 0.5, 0.5]
		},
		"firstperson_lefthand": {
			"translation": [0, 3.5, 0],
			"scale": [0.5, 0.5, 0.5]
		},
		"ground": {
			"translation": [0, 4, 0],
			"scale": [0.8, 0.8, 0.8]
		},
		"gui": {
			"rotation": [27, -145, 0],
			"translation": [1, -2, 0],
			"scale": [0.4, 0.4, 0.4]
		},
		"head": {
			"translation": [0, 0.25, 0],
			"scale": [1.05, 1.05, 1.05]
		},
		"fixed": {
			"rotation": [-90, 0, 0],
			"translation": [0, 0.5, -9]
		}
	},
	"groups": [
		{
			"name": "helm",
			"origin": [0, 0, 0],
			"color": 0,
			"children": [0, 1, 2, 3, 4, 5, 6, 7, 8, 9, 10, 11, 12, 13, 14, 15, 16, 17, 18, 19, 20, 21, 22, 23, 24, 25, 26, 27, 28, 29, 30, 31, 32, 33, 34, 35]
		},
		{
			"name": "group",
			"origin": [8, 10.8125, 6.20833],
			"color": 0,
			"children": [
				{
					"name": "group",
					"origin": [8, 10.8125, 6.20833],
					"color": 0,
					"children": [36, 37, 38, 39, 40, 41, 42, 43, 44, 45, 46, 47, 48, 49, 50, 51]
				}
			]
		},
		{
			"name": "group",
			"origin": [8, 10.8125, 6.20833],
			"color": 0,
			"children": [
				{
					"name": "group",
					"origin": [8, 10.8125, 6.20833],
					"color": 0,
					"children": [52, 53, 54, 55, 56, 57, 58, 59, 60, 61, 62, 63, 64, 65, 66, 67]
				}
			]
		},
		{
			"name": "group",
			"origin": [8, 8, 8],
			"color": 0,
			"children": [68, 69, 70, 71, 72, 73, 74, 75, 76, 77, 78, 79, 80, 81, 82, 83, 84, 85, 86, 87, 88, 89, 90, 91, 92, 93]
		},
		{
			"name": "group",
			"origin": [8, 8, 8],
			"color": 0,
			"children": [94, 95, 96, 97, 98, 99, 100, 101, 102, 103, 104, 105, 106, 107, 108, 109, 110, 111, 112, 113, 114, 115, 116, 117]
		}
	]
}